<?xml version="1.0" encoding="UTF-8"?>
<model ref="r:89a8fc45-8424-4dfb-8a13-9cea1181bb88(FacilityProduct.constraints)">
  <persistence version="9" />
  <languages>
    <use id="5dae8159-ab99-46bb-a40d-0cee30ee7018" name="jetbrains.mps.lang.constraints.rules.kinds" version="0" />
    <use id="ea3159bf-f48e-4720-bde2-86dba75f0d34" name="jetbrains.mps.lang.context.defs" version="0" />
    <use id="e51810c5-7308-4642-bcb6-469e61b5dd18" name="jetbrains.mps.lang.constraints.msg.specification" version="0" />
    <use id="134c38d4-e3af-4d9e-b069-1c7df0a4005d" name="jetbrains.mps.lang.constraints.rules.skeleton" version="0" />
    <use id="b3551702-269c-4f05-ba61-58060cef4292" name="jetbrains.mps.lang.rulesAndMessages" version="0" />
    <use id="3f4bc5f5-c6c1-4a28-8b10-c83066ffa4a1" name="jetbrains.mps.lang.constraints" version="6" />
    <use id="13744753-c81f-424a-9c1b-cf8943bf4e86" name="jetbrains.mps.lang.sharedConcepts" version="0" />
    <use id="3ad5badc-1d9c-461c-b7b1-fa2fcd0a0ae7" name="jetbrains.mps.lang.context" version="0" />
    <use id="ad93155d-79b2-4759-b10c-55123e763903" name="jetbrains.mps.lang.messages" version="0" />
    <devkit ref="00000000-0000-4000-0000-5604ebd4f22c(jetbrains.mps.devkit.aspect.constraints)" />
  </languages>
  <imports>
    <import index="prp3" ref="r:52ea8481-08b2-4cbd-ad9d-1b42825f7d09(jetbrains.mps.lang.constraints.rules.kinds.constraints)" />
    <import index="ynv" ref="r:482d45f2-47b2-4909-b645-235519915cd5(FacilityProduct.structure)" implicit="true" />
  </imports>
  <registry>
    <language id="f3061a53-9226-4cc5-a443-f952ceaf5816" name="jetbrains.mps.baseLanguage">
      <concept id="1153417849900" name="jetbrains.mps.baseLanguage.structure.GreaterThanOrEqualsExpression" flags="nn" index="2d3UOw" />
      <concept id="1137021947720" name="jetbrains.mps.baseLanguage.structure.ConceptFunction" flags="in" index="2VMwT0">
        <child id="1137022507850" name="body" index="2VODD2" />
      </concept>
      <concept id="1068580123136" name="jetbrains.mps.baseLanguage.structure.StatementList" flags="sn" stub="5293379017992965193" index="3clFbS">
        <child id="1068581517665" name="statement" index="3cqZAp" />
      </concept>
      <concept id="1068580320020" name="jetbrains.mps.baseLanguage.structure.IntegerConstant" flags="nn" index="3cmrfG">
        <property id="1068580320021" name="value" index="3cmrfH" />
      </concept>
      <concept id="1068581242878" name="jetbrains.mps.baseLanguage.structure.ReturnStatement" flags="nn" index="3cpWs6">
        <child id="1068581517676" name="expression" index="3cqZAk" />
      </concept>
      <concept id="1081773326031" name="jetbrains.mps.baseLanguage.structure.BinaryOperation" flags="nn" index="3uHJSO">
        <child id="1081773367579" name="rightExpression" index="3uHU7w" />
        <child id="1081773367580" name="leftExpression" index="3uHU7B" />
      </concept>
    </language>
    <language id="3f4bc5f5-c6c1-4a28-8b10-c83066ffa4a1" name="jetbrains.mps.lang.constraints">
      <concept id="1147467115080" name="jetbrains.mps.lang.constraints.structure.NodePropertyConstraint" flags="ng" index="EnEH3">
        <reference id="1147467295099" name="applicableProperty" index="EomxK" />
        <child id="1212097481299" name="propertyValidator" index="QCWH9" />
      </concept>
      <concept id="1212096972063" name="jetbrains.mps.lang.constraints.structure.ConstraintFunction_PropertyValidator" flags="in" index="QB0g5" />
      <concept id="1213093968558" name="jetbrains.mps.lang.constraints.structure.ConceptConstraints" flags="ng" index="1M2fIO">
        <reference id="1213093996982" name="concept" index="1M2myG" />
        <child id="1213098023997" name="property" index="1MhHOB" />
      </concept>
      <concept id="1153138554286" name="jetbrains.mps.lang.constraints.structure.ConstraintsFunctionParameter_propertyValue" flags="nn" index="1Wqviy" />
    </language>
  </registry>
  <node concept="1M2fIO" id="3W99A5ss4YX">
    <ref role="1M2myG" to="ynv:7M2dKfl0rrg" resolve="Node" />
    <node concept="EnEH3" id="6f9o7wY4ya_" role="1MhHOB">
      <ref role="EomxK" to="ynv:6f9o7wY4y8I" resolve="x" />
      <node concept="QB0g5" id="6f9o7wY4yc3" role="QCWH9">
        <node concept="3clFbS" id="6f9o7wY4yc4" role="2VODD2">
          <node concept="3cpWs6" id="6f9o7wY4$8z" role="3cqZAp">
            <node concept="2d3UOw" id="6f9o7wY4z_j" role="3cqZAk">
              <node concept="3cmrfG" id="6f9o7wY4z_X" role="3uHU7w">
                <property role="3cmrfH" value="0" />
              </node>
              <node concept="1Wqviy" id="6f9o7wY4zRc" role="3uHU7B" />
            </node>
          </node>
        </node>
      </node>
    </node>
    <node concept="EnEH3" id="6f9o7wY4$aH" role="1MhHOB">
      <ref role="EomxK" to="ynv:6f9o7wY4y8L" resolve="y" />
      <node concept="QB0g5" id="6f9o7wY4$fe" role="QCWH9">
        <node concept="3clFbS" id="6f9o7wY4$ff" role="2VODD2">
          <node concept="3cpWs6" id="6f9o7wY4$jQ" role="3cqZAp">
            <node concept="2d3UOw" id="6f9o7wY4_9t" role="3cqZAk">
              <node concept="3cmrfG" id="6f9o7wY4_a0" role="3uHU7w">
                <property role="3cmrfH" value="0" />
              </node>
              <node concept="1Wqviy" id="6f9o7wY4$km" role="3uHU7B" />
            </node>
          </node>
        </node>
      </node>
    </node>
  </node>
</model>

