<?xml version="1.0" encoding="UTF-8"?>
<model ref="r:96384125-9fb8-4b05-b3d3-e72eaf6773bd(FacilityProduct.behavior)">
  <persistence version="9" />
  <languages>
    <use id="7866978e-a0f0-4cc7-81bc-4d213d9375e1" name="jetbrains.mps.lang.smodel" version="17" />
    <use id="af65afd8-f0dd-4942-87d9-63a55f2a9db1" name="jetbrains.mps.lang.behavior" version="2" />
    <devkit ref="fbc25dd2-5da4-483a-8b19-70928e1b62d7(jetbrains.mps.devkit.general-purpose)" />
  </languages>
  <imports>
    <import index="1ctc" ref="6354ebe7-c22a-4a0f-ac54-50b52ab9b065/java:java.util.stream(JDK/)" />
    <import index="ynv" ref="r:482d45f2-47b2-4909-b645-235519915cd5(FacilityProduct.structure)" implicit="true" />
    <import index="tpck" ref="r:00000000-0000-4000-0000-011c89590288(jetbrains.mps.lang.core.structure)" implicit="true" />
    <import index="wyt6" ref="6354ebe7-c22a-4a0f-ac54-50b52ab9b065/java:java.lang(JDK/)" implicit="true" />
    <import index="guwi" ref="6354ebe7-c22a-4a0f-ac54-50b52ab9b065/java:java.io(JDK/)" implicit="true" />
  </imports>
  <registry>
    <language id="a247e09e-2435-45ba-b8d2-07e93feba96a" name="jetbrains.mps.baseLanguage.tuples">
      <concept id="1238852151516" name="jetbrains.mps.baseLanguage.tuples.structure.IndexedTupleType" flags="in" index="1LlUBW">
        <child id="1238852204892" name="componentType" index="1Lm7xW" />
      </concept>
      <concept id="1238853782547" name="jetbrains.mps.baseLanguage.tuples.structure.IndexedTupleLiteral" flags="nn" index="1Ls8ON">
        <child id="1238853845806" name="component" index="1Lso8e" />
      </concept>
    </language>
    <language id="af65afd8-f0dd-4942-87d9-63a55f2a9db1" name="jetbrains.mps.lang.behavior">
      <concept id="6496299201655527393" name="jetbrains.mps.lang.behavior.structure.LocalBehaviorMethodCall" flags="nn" index="BsUDl" />
      <concept id="1225194240794" name="jetbrains.mps.lang.behavior.structure.ConceptBehavior" flags="ng" index="13h7C7">
        <reference id="1225194240799" name="concept" index="13h7C2" />
        <child id="1225194240805" name="method" index="13h7CS" />
        <child id="1225194240801" name="constructor" index="13h7CW" />
      </concept>
      <concept id="1225194413805" name="jetbrains.mps.lang.behavior.structure.ConceptConstructorDeclaration" flags="in" index="13hLZK" />
      <concept id="1225194472830" name="jetbrains.mps.lang.behavior.structure.ConceptMethodDeclaration" flags="ng" index="13i0hz" />
      <concept id="1225194691553" name="jetbrains.mps.lang.behavior.structure.ThisNodeExpression" flags="nn" index="13iPFW" />
    </language>
    <language id="f3061a53-9226-4cc5-a443-f952ceaf5816" name="jetbrains.mps.baseLanguage">
      <concept id="1080223426719" name="jetbrains.mps.baseLanguage.structure.OrExpression" flags="nn" index="22lmx$" />
      <concept id="1082485599095" name="jetbrains.mps.baseLanguage.structure.BlockStatement" flags="nn" index="9aQIb">
        <child id="1082485599096" name="statements" index="9aQI4" />
      </concept>
      <concept id="1215693861676" name="jetbrains.mps.baseLanguage.structure.BaseAssignmentExpression" flags="nn" index="d038R">
        <child id="1068498886297" name="rValue" index="37vLTx" />
        <child id="1068498886295" name="lValue" index="37vLTJ" />
      </concept>
      <concept id="4836112446988635817" name="jetbrains.mps.baseLanguage.structure.UndefinedType" flags="in" index="2jxLKc" />
      <concept id="1202948039474" name="jetbrains.mps.baseLanguage.structure.InstanceMethodCallOperation" flags="nn" index="liA8E" />
      <concept id="1239714755177" name="jetbrains.mps.baseLanguage.structure.AbstractUnaryNumberOperation" flags="nn" index="2$Kvd9">
        <child id="1239714902950" name="expression" index="2$L3a6" />
      </concept>
      <concept id="1154032098014" name="jetbrains.mps.baseLanguage.structure.AbstractLoopStatement" flags="nn" index="2LF5Ji">
        <child id="1154032183016" name="body" index="2LFqv$" />
      </concept>
      <concept id="1197027756228" name="jetbrains.mps.baseLanguage.structure.DotExpression" flags="nn" index="2OqwBi">
        <child id="1197027771414" name="operand" index="2Oq$k0" />
        <child id="1197027833540" name="operation" index="2OqNvi" />
      </concept>
      <concept id="1145552977093" name="jetbrains.mps.baseLanguage.structure.GenericNewExpression" flags="nn" index="2ShNRf">
        <child id="1145553007750" name="creator" index="2ShVmc" />
      </concept>
      <concept id="1137021947720" name="jetbrains.mps.baseLanguage.structure.ConceptFunction" flags="in" index="2VMwT0">
        <child id="1137022507850" name="body" index="2VODD2" />
      </concept>
      <concept id="1070475926800" name="jetbrains.mps.baseLanguage.structure.StringLiteral" flags="nn" index="Xl_RD">
        <property id="1070475926801" name="value" index="Xl_RC" />
      </concept>
      <concept id="1081236700937" name="jetbrains.mps.baseLanguage.structure.StaticMethodCall" flags="nn" index="2YIFZM">
        <reference id="1144433194310" name="classConcept" index="1Pybhc" />
      </concept>
      <concept id="1070533707846" name="jetbrains.mps.baseLanguage.structure.StaticFieldReference" flags="nn" index="10M0yZ">
        <reference id="1144433057691" name="classifier" index="1PxDUh" />
      </concept>
      <concept id="1070534370425" name="jetbrains.mps.baseLanguage.structure.IntegerType" flags="in" index="10Oyi0" />
      <concept id="1070534644030" name="jetbrains.mps.baseLanguage.structure.BooleanType" flags="in" index="10P_77" />
      <concept id="1068431474542" name="jetbrains.mps.baseLanguage.structure.VariableDeclaration" flags="ng" index="33uBYm">
        <child id="1068431790190" name="initializer" index="33vP2m" />
      </concept>
      <concept id="1068498886296" name="jetbrains.mps.baseLanguage.structure.VariableReference" flags="nn" index="37vLTw">
        <reference id="1068581517664" name="variableDeclaration" index="3cqZAo" />
      </concept>
      <concept id="1068498886292" name="jetbrains.mps.baseLanguage.structure.ParameterDeclaration" flags="ir" index="37vLTG" />
      <concept id="1068498886294" name="jetbrains.mps.baseLanguage.structure.AssignmentExpression" flags="nn" index="37vLTI" />
      <concept id="1225271177708" name="jetbrains.mps.baseLanguage.structure.StringType" flags="in" index="17QB3L" />
      <concept id="4972933694980447171" name="jetbrains.mps.baseLanguage.structure.BaseVariableDeclaration" flags="ng" index="19Szcq">
        <child id="5680397130376446158" name="type" index="1tU5fm" />
      </concept>
      <concept id="1068580123132" name="jetbrains.mps.baseLanguage.structure.BaseMethodDeclaration" flags="ng" index="3clF44">
        <child id="1068580123133" name="returnType" index="3clF45" />
        <child id="1068580123134" name="parameter" index="3clF46" />
        <child id="1068580123135" name="body" index="3clF47" />
      </concept>
      <concept id="1068580123152" name="jetbrains.mps.baseLanguage.structure.EqualsExpression" flags="nn" index="3clFbC" />
      <concept id="1068580123155" name="jetbrains.mps.baseLanguage.structure.ExpressionStatement" flags="nn" index="3clFbF">
        <child id="1068580123156" name="expression" index="3clFbG" />
      </concept>
      <concept id="1068580123157" name="jetbrains.mps.baseLanguage.structure.Statement" flags="nn" index="3clFbH" />
      <concept id="1068580123159" name="jetbrains.mps.baseLanguage.structure.IfStatement" flags="nn" index="3clFbJ">
        <child id="1082485599094" name="ifFalseStatement" index="9aQIa" />
        <child id="1068580123160" name="condition" index="3clFbw" />
        <child id="1068580123161" name="ifTrue" index="3clFbx" />
      </concept>
      <concept id="1068580123136" name="jetbrains.mps.baseLanguage.structure.StatementList" flags="sn" stub="5293379017992965193" index="3clFbS">
        <child id="1068581517665" name="statement" index="3cqZAp" />
      </concept>
      <concept id="1068580123137" name="jetbrains.mps.baseLanguage.structure.BooleanConstant" flags="nn" index="3clFbT">
        <property id="1068580123138" name="value" index="3clFbU" />
      </concept>
      <concept id="1068580320020" name="jetbrains.mps.baseLanguage.structure.IntegerConstant" flags="nn" index="3cmrfG">
        <property id="1068580320021" name="value" index="3cmrfH" />
      </concept>
      <concept id="1068581242875" name="jetbrains.mps.baseLanguage.structure.PlusExpression" flags="nn" index="3cpWs3" />
      <concept id="1068581242878" name="jetbrains.mps.baseLanguage.structure.ReturnStatement" flags="nn" index="3cpWs6">
        <child id="1068581517676" name="expression" index="3cqZAk" />
      </concept>
      <concept id="1068581242864" name="jetbrains.mps.baseLanguage.structure.LocalVariableDeclarationStatement" flags="nn" index="3cpWs8">
        <child id="1068581242865" name="localVariableDeclaration" index="3cpWs9" />
      </concept>
      <concept id="1068581242869" name="jetbrains.mps.baseLanguage.structure.MinusExpression" flags="nn" index="3cpWsd" />
      <concept id="1068581242863" name="jetbrains.mps.baseLanguage.structure.LocalVariableDeclaration" flags="nr" index="3cpWsn" />
      <concept id="1068581517677" name="jetbrains.mps.baseLanguage.structure.VoidType" flags="in" index="3cqZAl" />
      <concept id="1081506762703" name="jetbrains.mps.baseLanguage.structure.GreaterThanExpression" flags="nn" index="3eOSWO" />
      <concept id="1081516740877" name="jetbrains.mps.baseLanguage.structure.NotExpression" flags="nn" index="3fqX7Q">
        <child id="1081516765348" name="expression" index="3fr31v" />
      </concept>
      <concept id="1204053956946" name="jetbrains.mps.baseLanguage.structure.IMethodCall" flags="ng" index="1ndlxa">
        <reference id="1068499141037" name="baseMethodDeclaration" index="37wK5l" />
        <child id="1068499141038" name="actualArgument" index="37wK5m" />
      </concept>
      <concept id="1081773326031" name="jetbrains.mps.baseLanguage.structure.BinaryOperation" flags="nn" index="3uHJSO">
        <child id="1081773367579" name="rightExpression" index="3uHU7w" />
        <child id="1081773367580" name="leftExpression" index="3uHU7B" />
      </concept>
      <concept id="1214918800624" name="jetbrains.mps.baseLanguage.structure.PostfixIncrementExpression" flags="nn" index="3uNrnE" />
      <concept id="1178549954367" name="jetbrains.mps.baseLanguage.structure.IVisible" flags="ng" index="1B3ioH">
        <child id="1178549979242" name="visibility" index="1B3o_S" />
      </concept>
      <concept id="1146644602865" name="jetbrains.mps.baseLanguage.structure.PublicVisibility" flags="nn" index="3Tm1VV" />
    </language>
    <language id="fd392034-7849-419d-9071-12563d152375" name="jetbrains.mps.baseLanguage.closures">
      <concept id="1199569711397" name="jetbrains.mps.baseLanguage.closures.structure.ClosureLiteral" flags="nn" index="1bVj0M">
        <child id="1199569906740" name="parameter" index="1bW2Oz" />
        <child id="1199569916463" name="body" index="1bW5cS" />
      </concept>
    </language>
    <language id="7866978e-a0f0-4cc7-81bc-4d213d9375e1" name="jetbrains.mps.lang.smodel">
      <concept id="1179409122411" name="jetbrains.mps.lang.smodel.structure.Node_ConceptMethodCall" flags="nn" index="2qgKlT" />
      <concept id="1138055754698" name="jetbrains.mps.lang.smodel.structure.SNodeType" flags="in" index="3Tqbb2">
        <reference id="1138405853777" name="concept" index="ehGHo" />
      </concept>
      <concept id="1138056022639" name="jetbrains.mps.lang.smodel.structure.SPropertyAccess" flags="nn" index="3TrcHB">
        <reference id="1138056395725" name="property" index="3TsBF5" />
      </concept>
      <concept id="1138056143562" name="jetbrains.mps.lang.smodel.structure.SLinkAccess" flags="nn" index="3TrEf2">
        <reference id="1138056516764" name="link" index="3Tt5mk" />
      </concept>
      <concept id="1138056282393" name="jetbrains.mps.lang.smodel.structure.SLinkListAccess" flags="nn" index="3Tsc0h">
        <reference id="1138056546658" name="link" index="3TtcxE" />
      </concept>
    </language>
    <language id="ceab5195-25ea-4f22-9b92-103b95ca8c0c" name="jetbrains.mps.lang.core">
      <concept id="1169194658468" name="jetbrains.mps.lang.core.structure.INamedConcept" flags="ng" index="TrEIO">
        <property id="1169194664001" name="name" index="TrG5h" />
      </concept>
    </language>
    <language id="83888646-71ce-4f1c-9c53-c54016f6ad4f" name="jetbrains.mps.baseLanguage.collections">
      <concept id="1204796164442" name="jetbrains.mps.baseLanguage.collections.structure.InternalSequenceOperation" flags="nn" index="23sCx2">
        <child id="1204796294226" name="closure" index="23t8la" />
      </concept>
      <concept id="540871147943773365" name="jetbrains.mps.baseLanguage.collections.structure.SingleArgumentSequenceOperation" flags="nn" index="25WWJ4">
        <child id="540871147943773366" name="argument" index="25WWJ7" />
      </concept>
      <concept id="1151688443754" name="jetbrains.mps.baseLanguage.collections.structure.ListType" flags="in" index="_YKpA">
        <child id="1151688676805" name="elementType" index="_ZDj9" />
      </concept>
      <concept id="1151702311717" name="jetbrains.mps.baseLanguage.collections.structure.ToListOperation" flags="nn" index="ANE8D" />
      <concept id="1153943597977" name="jetbrains.mps.baseLanguage.collections.structure.ForEachStatement" flags="nn" index="2Gpval">
        <child id="1153944400369" name="variable" index="2Gsz3X" />
        <child id="1153944424730" name="inputSequence" index="2GsD0m" />
      </concept>
      <concept id="1153944193378" name="jetbrains.mps.baseLanguage.collections.structure.ForEachVariable" flags="nr" index="2GrKxI" />
      <concept id="1153944233411" name="jetbrains.mps.baseLanguage.collections.structure.ForEachVariableReference" flags="nn" index="2GrUjf">
        <reference id="1153944258490" name="variable" index="2Gs0qQ" />
      </concept>
      <concept id="1235566554328" name="jetbrains.mps.baseLanguage.collections.structure.AnyOperation" flags="nn" index="2HwmR7" />
      <concept id="1237721394592" name="jetbrains.mps.baseLanguage.collections.structure.AbstractContainerCreator" flags="nn" index="HWqM0">
        <child id="1237721435807" name="elementType" index="HW$YZ" />
        <child id="1562299158920737514" name="initSize" index="3lWHg$" />
      </concept>
      <concept id="1203518072036" name="jetbrains.mps.baseLanguage.collections.structure.SmartClosureParameterDeclaration" flags="ig" index="Rh6nW" />
      <concept id="1237909114519" name="jetbrains.mps.baseLanguage.collections.structure.GetValuesOperation" flags="nn" index="T8wYR" />
      <concept id="1160600644654" name="jetbrains.mps.baseLanguage.collections.structure.ListCreatorWithInit" flags="nn" index="Tc6Ow" />
      <concept id="1160612413312" name="jetbrains.mps.baseLanguage.collections.structure.AddElementOperation" flags="nn" index="TSZUe" />
      <concept id="1167380149909" name="jetbrains.mps.baseLanguage.collections.structure.RemoveElementOperation" flags="nn" index="3dhRuq" />
      <concept id="1197683403723" name="jetbrains.mps.baseLanguage.collections.structure.MapType" flags="in" index="3rvAFt">
        <child id="1197683466920" name="keyType" index="3rvQeY" />
        <child id="1197683475734" name="valueType" index="3rvSg0" />
      </concept>
      <concept id="1197686869805" name="jetbrains.mps.baseLanguage.collections.structure.HashMapCreator" flags="nn" index="3rGOSV">
        <child id="1197687026896" name="keyType" index="3rHrn6" />
        <child id="1197687035757" name="valueType" index="3rHtpV" />
      </concept>
      <concept id="1225711141656" name="jetbrains.mps.baseLanguage.collections.structure.ListElementAccessExpression" flags="nn" index="1y4W85">
        <child id="1225711182005" name="list" index="1y566C" />
        <child id="1225711191269" name="index" index="1y58nS" />
      </concept>
      <concept id="1225727723840" name="jetbrains.mps.baseLanguage.collections.structure.FindFirstOperation" flags="nn" index="1z4cxt" />
      <concept id="1202120902084" name="jetbrains.mps.baseLanguage.collections.structure.WhereOperation" flags="nn" index="3zZkjj" />
      <concept id="1240824834947" name="jetbrains.mps.baseLanguage.collections.structure.ValueAccessOperation" flags="nn" index="3AV6Ez" />
      <concept id="1240825616499" name="jetbrains.mps.baseLanguage.collections.structure.KeyAccessOperation" flags="nn" index="3AY5_j" />
      <concept id="1197932370469" name="jetbrains.mps.baseLanguage.collections.structure.MapElement" flags="nn" index="3EllGN">
        <child id="1197932505799" name="map" index="3ElQJh" />
        <child id="1197932525128" name="key" index="3ElVtu" />
      </concept>
    </language>
  </registry>
  <node concept="13h7C7" id="3W99A5ssDI6">
    <ref role="13h7C2" to="ynv:7M2dKfl0rr2" resolve="Grid" />
    <node concept="13i0hz" id="3W99A5ssVcY" role="13h7CS">
      <property role="TrG5h" value="isConnected" />
      <node concept="3Tm1VV" id="3W99A5ssVcZ" role="1B3o_S" />
      <node concept="3clFbS" id="3W99A5ssVd1" role="3clF47">
        <node concept="3cpWs8" id="3W99A5stDoW" role="3cqZAp">
          <node concept="3cpWsn" id="3W99A5stDoZ" role="3cpWs9">
            <property role="TrG5h" value="visited" />
            <node concept="3rvAFt" id="3W99A5stDp1" role="1tU5fm">
              <node concept="17QB3L" id="3W99A5stDp2" role="3rvQeY" />
              <node concept="10P_77" id="3W99A5stDp3" role="3rvSg0" />
            </node>
            <node concept="2ShNRf" id="3W99A5stIqM" role="33vP2m">
              <node concept="3rGOSV" id="3W99A5stIqD" role="2ShVmc">
                <node concept="17QB3L" id="3W99A5stIqE" role="3rHrn6" />
                <node concept="10P_77" id="3W99A5stIqF" role="3rHtpV" />
              </node>
            </node>
          </node>
        </node>
        <node concept="2Gpval" id="3W99A5sv5j_" role="3cqZAp">
          <node concept="2GrKxI" id="3W99A5sv5jB" role="2Gsz3X">
            <property role="TrG5h" value="node" />
          </node>
          <node concept="2OqwBi" id="3W99A5sv5EZ" role="2GsD0m">
            <node concept="13iPFW" id="3W99A5sv5wx" role="2Oq$k0" />
            <node concept="3Tsc0h" id="3W99A5sv5NG" role="2OqNvi">
              <ref role="3TtcxE" to="ynv:7M2dKfl0ybM" resolve="nodes" />
            </node>
          </node>
          <node concept="3clFbS" id="3W99A5sv5jF" role="2LFqv$">
            <node concept="3clFbF" id="3W99A5sv5PC" role="3cqZAp">
              <node concept="37vLTI" id="3W99A5sv7HI" role="3clFbG">
                <node concept="3clFbT" id="3W99A5sv7O7" role="37vLTx" />
                <node concept="3EllGN" id="3W99A5sv6N8" role="37vLTJ">
                  <node concept="2OqwBi" id="3W99A5sv6ZL" role="3ElVtu">
                    <node concept="2GrUjf" id="3W99A5sv6Rv" role="2Oq$k0">
                      <ref role="2Gs0qQ" node="3W99A5sv5jB" resolve="node" />
                    </node>
                    <node concept="3TrcHB" id="3W99A5sv7jU" role="2OqNvi">
                      <ref role="3TsBF5" to="tpck:h0TrG11" resolve="name" />
                    </node>
                  </node>
                  <node concept="37vLTw" id="3W99A5sv5PB" role="3ElQJh">
                    <ref role="3cqZAo" node="3W99A5stDoZ" resolve="visited" />
                  </node>
                </node>
              </node>
            </node>
          </node>
        </node>
        <node concept="3clFbH" id="3W99A5sv53s" role="3cqZAp" />
        <node concept="3clFbF" id="3W99A5stIPb" role="3cqZAp">
          <node concept="2OqwBi" id="3W99A5stJ0W" role="3clFbG">
            <node concept="13iPFW" id="3W99A5stIP9" role="2Oq$k0" />
            <node concept="2qgKlT" id="3W99A5stJ8n" role="2OqNvi">
              <ref role="37wK5l" node="3W99A5ssDIh" resolve="DFS" />
              <node concept="2OqwBi" id="3W99A5stLux" role="37wK5m">
                <node concept="1y4W85" id="3W99A5stLfP" role="2Oq$k0">
                  <node concept="3cmrfG" id="3W99A5stLm$" role="1y58nS">
                    <property role="3cmrfH" value="0" />
                  </node>
                  <node concept="2OqwBi" id="3W99A5stJxs" role="1y566C">
                    <node concept="13iPFW" id="3W99A5stJve" role="2Oq$k0" />
                    <node concept="3Tsc0h" id="3W99A5stJyv" role="2OqNvi">
                      <ref role="3TtcxE" to="ynv:7M2dKfl0ybK" resolve="edges" />
                    </node>
                  </node>
                </node>
                <node concept="3TrEf2" id="3W99A5stLB3" role="2OqNvi">
                  <ref role="3Tt5mk" to="ynv:3W99A5ss2wn" resolve="node1" />
                </node>
              </node>
              <node concept="37vLTw" id="3W99A5stM5g" role="37wK5m">
                <ref role="3cqZAo" node="3W99A5stDoZ" resolve="visited" />
              </node>
            </node>
          </node>
        </node>
        <node concept="3clFbH" id="3W99A5sv8z2" role="3cqZAp" />
        <node concept="3cpWs8" id="4GdRdje$am3" role="3cqZAp">
          <node concept="3cpWsn" id="4GdRdje$am6" role="3cpWs9">
            <property role="TrG5h" value="reachable" />
            <node concept="10P_77" id="4GdRdje$am1" role="1tU5fm" />
            <node concept="3fqX7Q" id="3W99A5svaWd" role="33vP2m">
              <node concept="2OqwBi" id="3W99A5stEJ6" role="3fr31v">
                <node concept="2OqwBi" id="3W99A5stEnv" role="2Oq$k0">
                  <node concept="37vLTw" id="3W99A5stDCS" role="2Oq$k0">
                    <ref role="3cqZAo" node="3W99A5stDoZ" resolve="visited" />
                  </node>
                  <node concept="T8wYR" id="3W99A5stEtu" role="2OqNvi" />
                </node>
                <node concept="2HwmR7" id="3W99A5sv9gR" role="2OqNvi">
                  <node concept="1bVj0M" id="3W99A5sv9gT" role="23t8la">
                    <node concept="3clFbS" id="3W99A5sv9gU" role="1bW5cS">
                      <node concept="3clFbF" id="3W99A5sv9gV" role="3cqZAp">
                        <node concept="3clFbC" id="3W99A5sv9gW" role="3clFbG">
                          <node concept="3clFbT" id="3W99A5sv9gX" role="3uHU7w" />
                          <node concept="37vLTw" id="3W99A5sv9gY" role="3uHU7B">
                            <ref role="3cqZAo" node="3W99A5sv9gZ" resolve="it" />
                          </node>
                        </node>
                      </node>
                    </node>
                    <node concept="Rh6nW" id="3W99A5sv9gZ" role="1bW2Oz">
                      <property role="TrG5h" value="it" />
                      <node concept="2jxLKc" id="3W99A5sv9h0" role="1tU5fm" />
                    </node>
                  </node>
                </node>
              </node>
            </node>
          </node>
        </node>
        <node concept="3cpWs8" id="4GdRdje$aLV" role="3cqZAp">
          <node concept="3cpWsn" id="4GdRdje$aLY" role="3cpWs9">
            <property role="TrG5h" value="node" />
            <node concept="3Tqbb2" id="4GdRdje$aLT" role="1tU5fm">
              <ref role="ehGHo" to="ynv:7M2dKfl0rrg" resolve="Node" />
            </node>
            <node concept="2OqwBi" id="4GdRdje$g0_" role="33vP2m">
              <node concept="2OqwBi" id="4GdRdje$dZl" role="2Oq$k0">
                <node concept="13iPFW" id="4GdRdje$dQf" role="2Oq$k0" />
                <node concept="3Tsc0h" id="4GdRdje$e6K" role="2OqNvi">
                  <ref role="3TtcxE" to="ynv:7M2dKfl0ybM" resolve="nodes" />
                </node>
              </node>
              <node concept="1z4cxt" id="4GdRdje$hTA" role="2OqNvi">
                <node concept="1bVj0M" id="4GdRdje$hTC" role="23t8la">
                  <node concept="3clFbS" id="4GdRdje$hTD" role="1bW5cS">
                    <node concept="3clFbF" id="4GdRdje$hXv" role="3cqZAp">
                      <node concept="3clFbC" id="4GdRdje$iPS" role="3clFbG">
                        <node concept="2OqwBi" id="4GdRdje$ia2" role="3uHU7B">
                          <node concept="37vLTw" id="4GdRdje$hXu" role="2Oq$k0">
                            <ref role="3cqZAo" node="4GdRdje$hTE" resolve="it" />
                          </node>
                          <node concept="3TrcHB" id="4GdRdje$im9" role="2OqNvi">
                            <ref role="3TsBF5" to="tpck:h0TrG11" resolve="name" />
                          </node>
                        </node>
                        <node concept="2OqwBi" id="4GdRdje$dnY" role="3uHU7w">
                          <node concept="2OqwBi" id="4GdRdje$beQ" role="2Oq$k0">
                            <node concept="37vLTw" id="4GdRdje$aQ$" role="2Oq$k0">
                              <ref role="3cqZAo" node="3W99A5stDoZ" resolve="visited" />
                            </node>
                            <node concept="1z4cxt" id="4GdRdje$b$3" role="2OqNvi">
                              <node concept="1bVj0M" id="4GdRdje$b$5" role="23t8la">
                                <node concept="3clFbS" id="4GdRdje$b$6" role="1bW5cS">
                                  <node concept="3clFbF" id="4GdRdje$bEC" role="3cqZAp">
                                    <node concept="3clFbC" id="4GdRdje$cM0" role="3clFbG">
                                      <node concept="3clFbT" id="4GdRdje$cVe" role="3uHU7w" />
                                      <node concept="2OqwBi" id="4GdRdje$bX2" role="3uHU7B">
                                        <node concept="37vLTw" id="4GdRdje$bEB" role="2Oq$k0">
                                          <ref role="3cqZAo" node="4GdRdje$b$7" resolve="it" />
                                        </node>
                                        <node concept="3AV6Ez" id="4GdRdje$c96" role="2OqNvi" />
                                      </node>
                                    </node>
                                  </node>
                                </node>
                                <node concept="Rh6nW" id="4GdRdje$b$7" role="1bW2Oz">
                                  <property role="TrG5h" value="it" />
                                  <node concept="2jxLKc" id="4GdRdje$b$8" role="1tU5fm" />
                                </node>
                              </node>
                            </node>
                          </node>
                          <node concept="3AY5_j" id="4GdRdje$dKP" role="2OqNvi" />
                        </node>
                      </node>
                    </node>
                  </node>
                  <node concept="Rh6nW" id="4GdRdje$hTE" role="1bW2Oz">
                    <property role="TrG5h" value="it" />
                    <node concept="2jxLKc" id="4GdRdje$hTF" role="1tU5fm" />
                  </node>
                </node>
              </node>
            </node>
          </node>
        </node>
        <node concept="3clFbH" id="3W99A5sv8DS" role="3cqZAp" />
        <node concept="3cpWs6" id="4GdRdje$jJD" role="3cqZAp">
          <node concept="1Ls8ON" id="4GdRdje$kRK" role="3cqZAk">
            <node concept="37vLTw" id="4GdRdje$l19" role="1Lso8e">
              <ref role="3cqZAo" node="4GdRdje$am6" resolve="reachable" />
            </node>
            <node concept="37vLTw" id="4GdRdje$lkd" role="1Lso8e">
              <ref role="3cqZAo" node="4GdRdje$aLY" resolve="node" />
            </node>
          </node>
        </node>
        <node concept="3clFbH" id="3W99A5stD9x" role="3cqZAp" />
      </node>
      <node concept="1LlUBW" id="4GdRdje$8sA" role="3clF45">
        <node concept="10P_77" id="4GdRdje$8_s" role="1Lm7xW" />
        <node concept="3Tqbb2" id="4GdRdje$9mt" role="1Lm7xW">
          <ref role="ehGHo" to="ynv:7M2dKfl0rrg" resolve="Node" />
        </node>
      </node>
    </node>
    <node concept="13hLZK" id="3W99A5ssDI7" role="13h7CW">
      <node concept="3clFbS" id="3W99A5ssDI8" role="2VODD2" />
    </node>
    <node concept="13i0hz" id="3W99A5ssDIh" role="13h7CS">
      <property role="TrG5h" value="DFS" />
      <node concept="3Tm1VV" id="3W99A5ssDIi" role="1B3o_S" />
      <node concept="3cqZAl" id="3W99A5ssDIx" role="3clF45" />
      <node concept="3clFbS" id="3W99A5ssDIk" role="3clF47">
        <node concept="3clFbF" id="3W99A5ssDNt" role="3cqZAp">
          <node concept="37vLTI" id="3W99A5stuoe" role="3clFbG">
            <node concept="3clFbT" id="3W99A5stuyD" role="37vLTx">
              <property role="3clFbU" value="true" />
            </node>
            <node concept="3EllGN" id="3W99A5sttO8" role="37vLTJ">
              <node concept="2OqwBi" id="3W99A5stMR6" role="3ElVtu">
                <node concept="37vLTw" id="3W99A5sttTo" role="2Oq$k0">
                  <ref role="3cqZAo" node="3W99A5ssDJD" resolve="source" />
                </node>
                <node concept="3TrcHB" id="3W99A5stMZU" role="2OqNvi">
                  <ref role="3TsBF5" to="tpck:h0TrG11" resolve="name" />
                </node>
              </node>
              <node concept="37vLTw" id="3W99A5stsFd" role="3ElQJh">
                <ref role="3cqZAo" node="3W99A5ssDMc" resolve="visited" />
              </node>
            </node>
          </node>
        </node>
        <node concept="3cpWs8" id="3W99A5suAiG" role="3cqZAp">
          <node concept="3cpWsn" id="3W99A5suAiJ" role="3cpWs9">
            <property role="TrG5h" value="edgeList" />
            <node concept="_YKpA" id="3W99A5suAiC" role="1tU5fm">
              <node concept="3Tqbb2" id="3W99A5suAFC" role="_ZDj9">
                <ref role="ehGHo" to="ynv:7M2dKfl0rra" resolve="Edge" />
              </node>
            </node>
            <node concept="2OqwBi" id="3W99A5suYBo" role="33vP2m">
              <node concept="2OqwBi" id="3W99A5su3ey" role="2Oq$k0">
                <node concept="2OqwBi" id="3W99A5stPgv" role="2Oq$k0">
                  <node concept="13iPFW" id="3W99A5stP5K" role="2Oq$k0" />
                  <node concept="3Tsc0h" id="3W99A5stPqc" role="2OqNvi">
                    <ref role="3TtcxE" to="ynv:7M2dKfl0ybK" resolve="edges" />
                  </node>
                </node>
                <node concept="3zZkjj" id="3W99A5suTcE" role="2OqNvi">
                  <node concept="1bVj0M" id="3W99A5suTcG" role="23t8la">
                    <node concept="3clFbS" id="3W99A5suTcH" role="1bW5cS">
                      <node concept="3clFbF" id="3W99A5suTgF" role="3cqZAp">
                        <node concept="22lmx$" id="3W99A5suVpF" role="3clFbG">
                          <node concept="3clFbC" id="3W99A5suWUO" role="3uHU7w">
                            <node concept="2OqwBi" id="3W99A5suXkw" role="3uHU7w">
                              <node concept="37vLTw" id="3W99A5suX2d" role="2Oq$k0">
                                <ref role="3cqZAo" node="3W99A5ssDJD" resolve="source" />
                              </node>
                              <node concept="3TrcHB" id="3W99A5suXsn" role="2OqNvi">
                                <ref role="3TsBF5" to="tpck:h0TrG11" resolve="name" />
                              </node>
                            </node>
                            <node concept="2OqwBi" id="3W99A5suVUD" role="3uHU7B">
                              <node concept="2OqwBi" id="3W99A5suVDx" role="2Oq$k0">
                                <node concept="37vLTw" id="3W99A5suVty" role="2Oq$k0">
                                  <ref role="3cqZAo" node="3W99A5suTcI" resolve="it" />
                                </node>
                                <node concept="3TrEf2" id="3W99A5suVOg" role="2OqNvi">
                                  <ref role="3Tt5mk" to="ynv:3W99A5ss2wp" resolve="node2" />
                                </node>
                              </node>
                              <node concept="3TrcHB" id="3W99A5suWuc" role="2OqNvi">
                                <ref role="3TsBF5" to="tpck:h0TrG11" resolve="name" />
                              </node>
                            </node>
                          </node>
                          <node concept="3clFbC" id="3W99A5suUoO" role="3uHU7B">
                            <node concept="2OqwBi" id="3W99A5suTPy" role="3uHU7B">
                              <node concept="2OqwBi" id="3W99A5suTsE" role="2Oq$k0">
                                <node concept="37vLTw" id="3W99A5suTgE" role="2Oq$k0">
                                  <ref role="3cqZAo" node="3W99A5suTcI" resolve="it" />
                                </node>
                                <node concept="3TrEf2" id="3W99A5suTAj" role="2OqNvi">
                                  <ref role="3Tt5mk" to="ynv:3W99A5ss2wn" resolve="node1" />
                                </node>
                              </node>
                              <node concept="3TrcHB" id="3W99A5suU23" role="2OqNvi">
                                <ref role="3TsBF5" to="tpck:h0TrG11" resolve="name" />
                              </node>
                            </node>
                            <node concept="2OqwBi" id="3W99A5suV3A" role="3uHU7w">
                              <node concept="37vLTw" id="3W99A5suULA" role="2Oq$k0">
                                <ref role="3cqZAo" node="3W99A5ssDJD" resolve="source" />
                              </node>
                              <node concept="3TrcHB" id="3W99A5suVis" role="2OqNvi">
                                <ref role="3TsBF5" to="tpck:h0TrG11" resolve="name" />
                              </node>
                            </node>
                          </node>
                        </node>
                      </node>
                    </node>
                    <node concept="Rh6nW" id="3W99A5suTcI" role="1bW2Oz">
                      <property role="TrG5h" value="it" />
                      <node concept="2jxLKc" id="3W99A5suTcJ" role="1tU5fm" />
                    </node>
                  </node>
                </node>
              </node>
              <node concept="ANE8D" id="3W99A5suYPS" role="2OqNvi" />
            </node>
          </node>
        </node>
        <node concept="3clFbH" id="3W99A5sunWs" role="3cqZAp" />
        <node concept="2Gpval" id="3W99A5sv0Gb" role="3cqZAp">
          <node concept="2GrKxI" id="3W99A5sv0Gd" role="2Gsz3X">
            <property role="TrG5h" value="edge" />
          </node>
          <node concept="37vLTw" id="3W99A5sv174" role="2GsD0m">
            <ref role="3cqZAo" node="3W99A5suAiJ" resolve="edgeList" />
          </node>
          <node concept="3clFbS" id="3W99A5sv0Gh" role="2LFqv$">
            <node concept="3cpWs8" id="3W99A5sv1bQ" role="3cqZAp">
              <node concept="3cpWsn" id="3W99A5sv1bT" role="3cpWs9">
                <property role="TrG5h" value="node1" />
                <node concept="3Tqbb2" id="3W99A5sv1bP" role="1tU5fm">
                  <ref role="ehGHo" to="ynv:7M2dKfl0rrg" resolve="Node" />
                </node>
                <node concept="2OqwBi" id="3W99A5sv1lC" role="33vP2m">
                  <node concept="2GrUjf" id="3W99A5sv1cJ" role="2Oq$k0">
                    <ref role="2Gs0qQ" node="3W99A5sv0Gd" resolve="edge" />
                  </node>
                  <node concept="3TrEf2" id="3W99A5sv1Hh" role="2OqNvi">
                    <ref role="3Tt5mk" to="ynv:3W99A5ss2wn" resolve="node1" />
                  </node>
                </node>
              </node>
            </node>
            <node concept="3cpWs8" id="3W99A5sv1JC" role="3cqZAp">
              <node concept="3cpWsn" id="3W99A5sv1JF" role="3cpWs9">
                <property role="TrG5h" value="node2" />
                <node concept="3Tqbb2" id="3W99A5sv1JA" role="1tU5fm">
                  <ref role="ehGHo" to="ynv:7M2dKfl0rrg" resolve="Node" />
                </node>
                <node concept="2OqwBi" id="3W99A5sv1TD" role="33vP2m">
                  <node concept="2GrUjf" id="3W99A5sv1KK" role="2Oq$k0">
                    <ref role="2Gs0qQ" node="3W99A5sv0Gd" resolve="edge" />
                  </node>
                  <node concept="3TrEf2" id="3W99A5sv2jb" role="2OqNvi">
                    <ref role="3Tt5mk" to="ynv:3W99A5ss2wp" resolve="node2" />
                  </node>
                </node>
              </node>
            </node>
            <node concept="3clFbH" id="3W99A5sv2jx" role="3cqZAp" />
            <node concept="3clFbJ" id="3W99A5stjTv" role="3cqZAp">
              <node concept="3clFbS" id="3W99A5stjTx" role="3clFbx">
                <node concept="3clFbF" id="3W99A5stAGJ" role="3cqZAp">
                  <node concept="BsUDl" id="3W99A5stAGI" role="3clFbG">
                    <ref role="37wK5l" node="3W99A5ssDIh" resolve="DFS" />
                    <node concept="37vLTw" id="3W99A5stAH0" role="37wK5m">
                      <ref role="3cqZAo" node="3W99A5sv1bT" resolve="node1" />
                    </node>
                    <node concept="37vLTw" id="3W99A5stB3A" role="37wK5m">
                      <ref role="3cqZAo" node="3W99A5ssDMc" resolve="visited" />
                    </node>
                  </node>
                </node>
              </node>
              <node concept="3clFbC" id="3W99A5stAiz" role="3clFbw">
                <node concept="3clFbT" id="3W99A5stAFK" role="3uHU7w" />
                <node concept="3EllGN" id="3W99A5st_Cs" role="3uHU7B">
                  <node concept="2OqwBi" id="3W99A5st_OF" role="3ElVtu">
                    <node concept="37vLTw" id="3W99A5st_Er" role="2Oq$k0">
                      <ref role="3cqZAo" node="3W99A5sv1bT" resolve="node1" />
                    </node>
                    <node concept="3TrcHB" id="3W99A5st_XW" role="2OqNvi">
                      <ref role="3TsBF5" to="tpck:h0TrG11" resolve="name" />
                    </node>
                  </node>
                  <node concept="37vLTw" id="3W99A5stkGn" role="3ElQJh">
                    <ref role="3cqZAo" node="3W99A5ssDMc" resolve="visited" />
                  </node>
                </node>
              </node>
            </node>
            <node concept="3clFbJ" id="3W99A5stB8v" role="3cqZAp">
              <node concept="3clFbS" id="3W99A5stB8w" role="3clFbx">
                <node concept="3clFbF" id="3W99A5stB8x" role="3cqZAp">
                  <node concept="BsUDl" id="3W99A5stB8y" role="3clFbG">
                    <ref role="37wK5l" node="3W99A5ssDIh" resolve="DFS" />
                    <node concept="37vLTw" id="3W99A5sv3g1" role="37wK5m">
                      <ref role="3cqZAo" node="3W99A5sv1JF" resolve="node2" />
                    </node>
                    <node concept="37vLTw" id="3W99A5stB8A" role="37wK5m">
                      <ref role="3cqZAo" node="3W99A5ssDMc" resolve="visited" />
                    </node>
                  </node>
                </node>
                <node concept="3clFbF" id="3W99A5stBU3" role="3cqZAp">
                  <node concept="2OqwBi" id="3W99A5stBYU" role="3clFbG">
                    <node concept="10M0yZ" id="3W99A5stBYV" role="2Oq$k0">
                      <ref role="3cqZAo" to="wyt6:~System.out" resolve="out" />
                      <ref role="1PxDUh" to="wyt6:~System" resolve="System" />
                    </node>
                    <node concept="liA8E" id="3W99A5stBYW" role="2OqNvi">
                      <ref role="37wK5l" to="guwi:~PrintStream.println(java.lang.Object)" resolve="println" />
                      <node concept="37vLTw" id="3W99A5stCyH" role="37wK5m">
                        <ref role="3cqZAo" node="3W99A5ssDMc" resolve="visited" />
                      </node>
                    </node>
                  </node>
                </node>
              </node>
              <node concept="3clFbC" id="3W99A5stB8B" role="3clFbw">
                <node concept="3clFbT" id="3W99A5stB8C" role="3uHU7w" />
                <node concept="3EllGN" id="3W99A5stB8D" role="3uHU7B">
                  <node concept="2OqwBi" id="3W99A5stB8E" role="3ElVtu">
                    <node concept="37vLTw" id="3W99A5sv3dC" role="2Oq$k0">
                      <ref role="3cqZAo" node="3W99A5sv1JF" resolve="node2" />
                    </node>
                    <node concept="3TrcHB" id="3W99A5stB8G" role="2OqNvi">
                      <ref role="3TsBF5" to="tpck:h0TrG11" resolve="name" />
                    </node>
                  </node>
                  <node concept="37vLTw" id="3W99A5stB8H" role="3ElQJh">
                    <ref role="3cqZAo" node="3W99A5ssDMc" resolve="visited" />
                  </node>
                </node>
              </node>
            </node>
          </node>
        </node>
      </node>
      <node concept="37vLTG" id="3W99A5ssDJD" role="3clF46">
        <property role="TrG5h" value="source" />
        <node concept="3Tqbb2" id="3W99A5stMoF" role="1tU5fm">
          <ref role="ehGHo" to="ynv:7M2dKfl0rrg" resolve="Node" />
        </node>
      </node>
      <node concept="37vLTG" id="3W99A5ssDMc" role="3clF46">
        <property role="TrG5h" value="visited" />
        <node concept="3rvAFt" id="3W99A5stpM8" role="1tU5fm">
          <node concept="17QB3L" id="3W99A5stq9h" role="3rvQeY" />
          <node concept="10P_77" id="3W99A5stqwm" role="3rvSg0" />
        </node>
      </node>
    </node>
    <node concept="13i0hz" id="4GdRdje$Aa2" role="13h7CS">
      <property role="TrG5h" value="DFS2" />
      <node concept="3Tm1VV" id="4GdRdje$Aa3" role="1B3o_S" />
      <node concept="3clFbS" id="4GdRdje$Aa5" role="3clF47">
        <node concept="3clFbF" id="4GdRdje$Aa6" role="3cqZAp">
          <node concept="37vLTI" id="4GdRdje$Aa7" role="3clFbG">
            <node concept="3clFbT" id="4GdRdje$Aa8" role="37vLTx">
              <property role="3clFbU" value="true" />
            </node>
            <node concept="3EllGN" id="4GdRdje$Aa9" role="37vLTJ">
              <node concept="2OqwBi" id="4GdRdje$Aaa" role="3ElVtu">
                <node concept="37vLTw" id="4GdRdje$Aab" role="2Oq$k0">
                  <ref role="3cqZAo" node="4GdRdje$Aby" resolve="source" />
                </node>
                <node concept="3TrcHB" id="4GdRdje$Aac" role="2OqNvi">
                  <ref role="3TsBF5" to="tpck:h0TrG11" resolve="name" />
                </node>
              </node>
              <node concept="37vLTw" id="4GdRdje$Aad" role="3ElQJh">
                <ref role="3cqZAo" node="4GdRdje$Ab$" resolve="visited" />
              </node>
            </node>
          </node>
        </node>
        <node concept="3cpWs8" id="4GdRdje$Aae" role="3cqZAp">
          <node concept="3cpWsn" id="4GdRdje$Aaf" role="3cpWs9">
            <property role="TrG5h" value="edgeList" />
            <node concept="_YKpA" id="4GdRdje$Aag" role="1tU5fm">
              <node concept="3Tqbb2" id="4GdRdje$Aah" role="_ZDj9">
                <ref role="ehGHo" to="ynv:7M2dKfl0rra" resolve="Edge" />
              </node>
            </node>
            <node concept="2OqwBi" id="4GdRdje$Aai" role="33vP2m">
              <node concept="2OqwBi" id="4GdRdje$Aaj" role="2Oq$k0">
                <node concept="2OqwBi" id="4GdRdje$Aak" role="2Oq$k0">
                  <node concept="13iPFW" id="4GdRdje$Aal" role="2Oq$k0" />
                  <node concept="3Tsc0h" id="4GdRdje$Aam" role="2OqNvi">
                    <ref role="3TtcxE" to="ynv:7M2dKfl0ybK" resolve="edges" />
                  </node>
                </node>
                <node concept="3zZkjj" id="4GdRdje$Aan" role="2OqNvi">
                  <node concept="1bVj0M" id="4GdRdje$Aao" role="23t8la">
                    <node concept="3clFbS" id="4GdRdje$Aap" role="1bW5cS">
                      <node concept="3clFbF" id="4GdRdje$Aaq" role="3cqZAp">
                        <node concept="22lmx$" id="4GdRdje$Aar" role="3clFbG">
                          <node concept="3clFbC" id="4GdRdje$Aas" role="3uHU7w">
                            <node concept="2OqwBi" id="4GdRdje$Aat" role="3uHU7w">
                              <node concept="37vLTw" id="4GdRdje$Aau" role="2Oq$k0">
                                <ref role="3cqZAo" node="4GdRdje$Aby" resolve="source" />
                              </node>
                              <node concept="3TrcHB" id="4GdRdje$Aav" role="2OqNvi">
                                <ref role="3TsBF5" to="tpck:h0TrG11" resolve="name" />
                              </node>
                            </node>
                            <node concept="2OqwBi" id="4GdRdje$Aaw" role="3uHU7B">
                              <node concept="2OqwBi" id="4GdRdje$Aax" role="2Oq$k0">
                                <node concept="37vLTw" id="4GdRdje$Aay" role="2Oq$k0">
                                  <ref role="3cqZAo" node="4GdRdje$AaI" resolve="it" />
                                </node>
                                <node concept="3TrEf2" id="4GdRdje$Aaz" role="2OqNvi">
                                  <ref role="3Tt5mk" to="ynv:3W99A5ss2wp" resolve="node2" />
                                </node>
                              </node>
                              <node concept="3TrcHB" id="4GdRdje$Aa$" role="2OqNvi">
                                <ref role="3TsBF5" to="tpck:h0TrG11" resolve="name" />
                              </node>
                            </node>
                          </node>
                          <node concept="3clFbC" id="4GdRdje$Aa_" role="3uHU7B">
                            <node concept="2OqwBi" id="4GdRdje$AaA" role="3uHU7B">
                              <node concept="2OqwBi" id="4GdRdje$AaB" role="2Oq$k0">
                                <node concept="37vLTw" id="4GdRdje$AaC" role="2Oq$k0">
                                  <ref role="3cqZAo" node="4GdRdje$AaI" resolve="it" />
                                </node>
                                <node concept="3TrEf2" id="4GdRdje$AaD" role="2OqNvi">
                                  <ref role="3Tt5mk" to="ynv:3W99A5ss2wn" resolve="node1" />
                                </node>
                              </node>
                              <node concept="3TrcHB" id="4GdRdje$AaE" role="2OqNvi">
                                <ref role="3TsBF5" to="tpck:h0TrG11" resolve="name" />
                              </node>
                            </node>
                            <node concept="2OqwBi" id="4GdRdje$AaF" role="3uHU7w">
                              <node concept="37vLTw" id="4GdRdje$AaG" role="2Oq$k0">
                                <ref role="3cqZAo" node="4GdRdje$Aby" resolve="source" />
                              </node>
                              <node concept="3TrcHB" id="4GdRdje$AaH" role="2OqNvi">
                                <ref role="3TsBF5" to="tpck:h0TrG11" resolve="name" />
                              </node>
                            </node>
                          </node>
                        </node>
                      </node>
                    </node>
                    <node concept="Rh6nW" id="4GdRdje$AaI" role="1bW2Oz">
                      <property role="TrG5h" value="it" />
                      <node concept="2jxLKc" id="4GdRdje$AaJ" role="1tU5fm" />
                    </node>
                  </node>
                </node>
              </node>
              <node concept="ANE8D" id="4GdRdje$AaK" role="2OqNvi" />
            </node>
          </node>
        </node>
        <node concept="3clFbH" id="4GdRdje$MFT" role="3cqZAp" />
        <node concept="3clFbJ" id="4GdRdje$NCM" role="3cqZAp">
          <node concept="3clFbS" id="4GdRdje$NCO" role="3clFbx" />
          <node concept="3clFbC" id="4GdRdje$Ovl" role="3clFbw">
            <node concept="2OqwBi" id="4GdRdje$OV5" role="3uHU7w">
              <node concept="37vLTw" id="4GdRdje$OHo" role="2Oq$k0">
                <ref role="3cqZAo" node="4GdRdje$LSi" resolve="target" />
              </node>
              <node concept="3TrcHB" id="4GdRdje$OWa" role="2OqNvi">
                <ref role="3TsBF5" to="tpck:h0TrG11" resolve="name" />
              </node>
            </node>
            <node concept="2OqwBi" id="4GdRdje$NXP" role="3uHU7B">
              <node concept="37vLTw" id="4GdRdje$NEn" role="2Oq$k0">
                <ref role="3cqZAo" node="4GdRdje$Aby" resolve="source" />
              </node>
              <node concept="3TrcHB" id="4GdRdje$O6M" role="2OqNvi">
                <ref role="3TsBF5" to="tpck:h0TrG11" resolve="name" />
              </node>
            </node>
          </node>
        </node>
        <node concept="3clFbH" id="4GdRdje$AaL" role="3cqZAp" />
        <node concept="2Gpval" id="4GdRdje$AaM" role="3cqZAp">
          <node concept="2GrKxI" id="4GdRdje$AaN" role="2Gsz3X">
            <property role="TrG5h" value="edge" />
          </node>
          <node concept="37vLTw" id="4GdRdje$AaO" role="2GsD0m">
            <ref role="3cqZAo" node="4GdRdje$Aaf" resolve="edgeList" />
          </node>
          <node concept="3clFbS" id="4GdRdje$AaP" role="2LFqv$">
            <node concept="3cpWs8" id="4GdRdje$Div" role="3cqZAp">
              <node concept="3cpWsn" id="4GdRdje$Diy" role="3cpWs9">
                <property role="TrG5h" value="node" />
                <node concept="3Tqbb2" id="4GdRdje$Dit" role="1tU5fm">
                  <ref role="ehGHo" to="ynv:7M2dKfl0rrg" resolve="Node" />
                </node>
              </node>
            </node>
            <node concept="3clFbH" id="4GdRdje$DxQ" role="3cqZAp" />
            <node concept="3clFbJ" id="4GdRdje$DQ4" role="3cqZAp">
              <node concept="3clFbS" id="4GdRdje$DQ6" role="3clFbx">
                <node concept="3clFbF" id="4GdRdje$Gs6" role="3cqZAp">
                  <node concept="37vLTI" id="4GdRdje$G$6" role="3clFbG">
                    <node concept="2OqwBi" id="4GdRdje$GHt" role="37vLTx">
                      <node concept="2GrUjf" id="4GdRdje$G$w" role="2Oq$k0">
                        <ref role="2Gs0qQ" node="4GdRdje$AaN" resolve="edge" />
                      </node>
                      <node concept="3TrEf2" id="4GdRdje$Hol" role="2OqNvi">
                        <ref role="3Tt5mk" to="ynv:3W99A5ss2wp" resolve="node2" />
                      </node>
                    </node>
                    <node concept="37vLTw" id="4GdRdje$Gs4" role="37vLTJ">
                      <ref role="3cqZAo" node="4GdRdje$Diy" resolve="node" />
                    </node>
                  </node>
                </node>
              </node>
              <node concept="3clFbC" id="4GdRdje$FEs" role="3clFbw">
                <node concept="2OqwBi" id="4GdRdje$GbL" role="3uHU7w">
                  <node concept="37vLTw" id="4GdRdje$FZH" role="2Oq$k0">
                    <ref role="3cqZAo" node="4GdRdje$Aby" resolve="source" />
                  </node>
                  <node concept="3TrcHB" id="4GdRdje$GcZ" role="2OqNvi">
                    <ref role="3TsBF5" to="tpck:h0TrG11" resolve="name" />
                  </node>
                </node>
                <node concept="2OqwBi" id="4GdRdje$EZV" role="3uHU7B">
                  <node concept="2OqwBi" id="4GdRdje$E5R" role="2Oq$k0">
                    <node concept="2GrUjf" id="4GdRdje$DVl" role="2Oq$k0">
                      <ref role="2Gs0qQ" node="4GdRdje$AaN" resolve="edge" />
                    </node>
                    <node concept="3TrEf2" id="4GdRdje$EIw" role="2OqNvi">
                      <ref role="3Tt5mk" to="ynv:3W99A5ss2wn" resolve="node1" />
                    </node>
                  </node>
                  <node concept="3TrcHB" id="4GdRdje$FhZ" role="2OqNvi">
                    <ref role="3TsBF5" to="tpck:h0TrG11" resolve="name" />
                  </node>
                </node>
              </node>
              <node concept="9aQIb" id="4GdRdje$J9d" role="9aQIa">
                <node concept="3clFbS" id="4GdRdje$J9e" role="9aQI4">
                  <node concept="3clFbF" id="4GdRdje$Ji5" role="3cqZAp">
                    <node concept="37vLTI" id="4GdRdje$JrJ" role="3clFbG">
                      <node concept="2OqwBi" id="4GdRdje$J_6" role="37vLTx">
                        <node concept="2GrUjf" id="4GdRdje$Js9" role="2Oq$k0">
                          <ref role="2Gs0qQ" node="4GdRdje$AaN" resolve="edge" />
                        </node>
                        <node concept="3TrEf2" id="4GdRdje$Kw$" role="2OqNvi">
                          <ref role="3Tt5mk" to="ynv:3W99A5ss2wn" resolve="node1" />
                        </node>
                      </node>
                      <node concept="37vLTw" id="4GdRdje$Ji4" role="37vLTJ">
                        <ref role="3cqZAo" node="4GdRdje$Diy" resolve="node" />
                      </node>
                    </node>
                  </node>
                </node>
              </node>
            </node>
            <node concept="3clFbH" id="4GdRdje$Ddt" role="3cqZAp" />
            <node concept="3clFbJ" id="4GdRdje$Ab3" role="3cqZAp">
              <node concept="3clFbS" id="4GdRdje$Ab4" role="3clFbx">
                <node concept="3cpWs6" id="4GdRdje$PuX" role="3cqZAp">
                  <node concept="BsUDl" id="4GdRdje$Ab6" role="3cqZAk">
                    <ref role="37wK5l" node="4GdRdje$Aa2" resolve="DFS2" />
                    <node concept="37vLTw" id="4GdRdje$KUf" role="37wK5m">
                      <ref role="3cqZAo" node="4GdRdje$Diy" resolve="node" />
                    </node>
                    <node concept="37vLTw" id="4GdRdje$Ab8" role="37wK5m">
                      <ref role="3cqZAo" node="4GdRdje$Ab$" resolve="visited" />
                    </node>
                    <node concept="3uNrnE" id="4GdRdje$R6C" role="37wK5m">
                      <node concept="37vLTw" id="4GdRdje$R6E" role="2$L3a6">
                        <ref role="3cqZAo" node="4GdRdje$LFM" resolve="distance" />
                      </node>
                    </node>
                    <node concept="37vLTw" id="4GdRdje$RUi" role="37wK5m">
                      <ref role="3cqZAo" node="4GdRdje$LSi" resolve="target" />
                    </node>
                  </node>
                </node>
              </node>
              <node concept="3clFbC" id="4GdRdje$Ab9" role="3clFbw">
                <node concept="3clFbT" id="4GdRdje$Aba" role="3uHU7w" />
                <node concept="3EllGN" id="4GdRdje$Abb" role="3uHU7B">
                  <node concept="2OqwBi" id="4GdRdje$Abc" role="3ElVtu">
                    <node concept="37vLTw" id="4GdRdje$KFl" role="2Oq$k0">
                      <ref role="3cqZAo" node="4GdRdje$Diy" resolve="node" />
                    </node>
                    <node concept="3TrcHB" id="4GdRdje$Abe" role="2OqNvi">
                      <ref role="3TsBF5" to="tpck:h0TrG11" resolve="name" />
                    </node>
                  </node>
                  <node concept="37vLTw" id="4GdRdje$Abf" role="3ElQJh">
                    <ref role="3cqZAo" node="4GdRdje$Ab$" resolve="visited" />
                  </node>
                </node>
              </node>
            </node>
          </node>
        </node>
        <node concept="3cpWs6" id="4GdRdje$SxY" role="3cqZAp">
          <node concept="3cmrfG" id="4GdRdje$SI2" role="3cqZAk">
            <property role="3cmrfH" value="-1" />
          </node>
        </node>
      </node>
      <node concept="37vLTG" id="4GdRdje$Aby" role="3clF46">
        <property role="TrG5h" value="source" />
        <node concept="3Tqbb2" id="4GdRdje$Abz" role="1tU5fm">
          <ref role="ehGHo" to="ynv:7M2dKfl0rrg" resolve="Node" />
        </node>
      </node>
      <node concept="37vLTG" id="4GdRdje$Ab$" role="3clF46">
        <property role="TrG5h" value="visited" />
        <node concept="3rvAFt" id="4GdRdje$Ab_" role="1tU5fm">
          <node concept="17QB3L" id="4GdRdje$AbA" role="3rvQeY" />
          <node concept="10P_77" id="4GdRdje$AbB" role="3rvSg0" />
        </node>
      </node>
      <node concept="37vLTG" id="4GdRdje$LFM" role="3clF46">
        <property role="TrG5h" value="distance" />
        <node concept="10Oyi0" id="4GdRdje$LPL" role="1tU5fm" />
      </node>
      <node concept="37vLTG" id="4GdRdje$LSi" role="3clF46">
        <property role="TrG5h" value="target" />
        <node concept="3Tqbb2" id="4GdRdje$MCE" role="1tU5fm">
          <ref role="ehGHo" to="ynv:7M2dKfl0rrg" resolve="Node" />
        </node>
      </node>
      <node concept="10Oyi0" id="4GdRdje$LxW" role="3clF45" />
    </node>
    <node concept="13i0hz" id="6f9o7wY4Azq" role="13h7CS">
      <property role="TrG5h" value="checkEdges" />
      <node concept="3Tm1VV" id="6f9o7wY4Azr" role="1B3o_S" />
      <node concept="3clFbS" id="6f9o7wY4Azt" role="3clF47">
        <node concept="2Gpval" id="6f9o7wY4JCG" role="3cqZAp">
          <node concept="2GrKxI" id="6f9o7wY4JCH" role="2Gsz3X">
            <property role="TrG5h" value="edge" />
          </node>
          <node concept="2OqwBi" id="6f9o7wY4JMu" role="2GsD0m">
            <node concept="13iPFW" id="6f9o7wY4JDg" role="2Oq$k0" />
            <node concept="3Tsc0h" id="6f9o7wY4JTV" role="2OqNvi">
              <ref role="3TtcxE" to="ynv:7M2dKfl0ybK" resolve="edges" />
            </node>
          </node>
          <node concept="3clFbS" id="6f9o7wY4JCJ" role="2LFqv$">
            <node concept="3cpWs8" id="6f9o7wY4KOS" role="3cqZAp">
              <node concept="3cpWsn" id="6f9o7wY4KOV" role="3cpWs9">
                <property role="TrG5h" value="node1" />
                <node concept="3Tqbb2" id="6f9o7wY4KOR" role="1tU5fm">
                  <ref role="ehGHo" to="ynv:7M2dKfl0rrg" resolve="Node" />
                </node>
                <node concept="2OqwBi" id="6f9o7wY4KYE" role="33vP2m">
                  <node concept="2GrUjf" id="6f9o7wY4KPL" role="2Oq$k0">
                    <ref role="2Gs0qQ" node="6f9o7wY4JCH" resolve="edge" />
                  </node>
                  <node concept="3TrEf2" id="6f9o7wY4Lac" role="2OqNvi">
                    <ref role="3Tt5mk" to="ynv:3W99A5ss2wn" resolve="node1" />
                  </node>
                </node>
              </node>
            </node>
            <node concept="3cpWs8" id="6f9o7wY4LcB" role="3cqZAp">
              <node concept="3cpWsn" id="6f9o7wY4LcE" role="3cpWs9">
                <property role="TrG5h" value="node2" />
                <node concept="3Tqbb2" id="6f9o7wY4Lc_" role="1tU5fm">
                  <ref role="ehGHo" to="ynv:7M2dKfl0rrg" resolve="Node" />
                </node>
                <node concept="2OqwBi" id="6f9o7wY4Lmu" role="33vP2m">
                  <node concept="2GrUjf" id="6f9o7wY4Ld_" role="2Oq$k0">
                    <ref role="2Gs0qQ" node="6f9o7wY4JCH" resolve="edge" />
                  </node>
                  <node concept="3TrEf2" id="6f9o7wY4LyA" role="2OqNvi">
                    <ref role="3Tt5mk" to="ynv:3W99A5ss2wp" resolve="node2" />
                  </node>
                </node>
              </node>
            </node>
            <node concept="3clFbH" id="6f9o7wY4LyW" role="3cqZAp" />
            <node concept="3clFbJ" id="6f9o7wY4LzE" role="3cqZAp">
              <node concept="3clFbS" id="6f9o7wY4LzG" role="3clFbx">
                <node concept="3cpWs6" id="6f9o7wY4UiL" role="3cqZAp">
                  <node concept="1Ls8ON" id="6f9o7wY4Ujj" role="3cqZAk">
                    <node concept="3clFbT" id="6f9o7wY4UV9" role="1Lso8e" />
                    <node concept="2GrUjf" id="6f9o7wY4Vuz" role="1Lso8e">
                      <ref role="2Gs0qQ" node="6f9o7wY4JCH" resolve="edge" />
                    </node>
                  </node>
                </node>
              </node>
              <node concept="3eOSWO" id="6f9o7wY4UeH" role="3clFbw">
                <node concept="2YIFZM" id="6f9o7wY4OhU" role="3uHU7B">
                  <ref role="37wK5l" to="wyt6:~Math.abs(int)" resolve="abs" />
                  <ref role="1Pybhc" to="wyt6:~Math" resolve="Math" />
                  <node concept="3cpWsd" id="6f9o7wY4SLg" role="37wK5m">
                    <node concept="2OqwBi" id="6f9o7wY4SOq" role="3uHU7w">
                      <node concept="37vLTw" id="6f9o7wY4SMz" role="2Oq$k0">
                        <ref role="3cqZAo" node="6f9o7wY4LcE" resolve="node2" />
                      </node>
                      <node concept="3TrcHB" id="6f9o7wY4T9D" role="2OqNvi">
                        <ref role="3TsBF5" to="ynv:6f9o7wY4y8L" resolve="y" />
                      </node>
                    </node>
                    <node concept="3cpWs3" id="6f9o7wY5TBz" role="3uHU7B">
                      <node concept="3cpWsd" id="6f9o7wY4QWe" role="3uHU7B">
                        <node concept="2OqwBi" id="6f9o7wY4PLt" role="3uHU7B">
                          <node concept="37vLTw" id="6f9o7wY4Pqi" role="2Oq$k0">
                            <ref role="3cqZAo" node="6f9o7wY4KOV" resolve="node1" />
                          </node>
                          <node concept="3TrcHB" id="6f9o7wY4PUi" role="2OqNvi">
                            <ref role="3TsBF5" to="ynv:6f9o7wY4y8I" resolve="x" />
                          </node>
                        </node>
                        <node concept="2OqwBi" id="6f9o7wY4RgL" role="3uHU7w">
                          <node concept="37vLTw" id="6f9o7wY4QXd" role="2Oq$k0">
                            <ref role="3cqZAo" node="6f9o7wY4LcE" resolve="node2" />
                          </node>
                          <node concept="3TrcHB" id="6f9o7wY4Ry0" role="2OqNvi">
                            <ref role="3TsBF5" to="ynv:6f9o7wY4y8I" resolve="x" />
                          </node>
                        </node>
                      </node>
                      <node concept="2OqwBi" id="6f9o7wY4SHo" role="3uHU7w">
                        <node concept="37vLTw" id="6f9o7wY4S_P" role="2Oq$k0">
                          <ref role="3cqZAo" node="6f9o7wY4KOV" resolve="node1" />
                        </node>
                        <node concept="3TrcHB" id="6f9o7wY4SJf" role="2OqNvi">
                          <ref role="3TsBF5" to="ynv:6f9o7wY4y8L" resolve="y" />
                        </node>
                      </node>
                    </node>
                  </node>
                </node>
                <node concept="3cmrfG" id="6f9o7wY4Uha" role="3uHU7w">
                  <property role="3cmrfH" value="1" />
                </node>
              </node>
            </node>
          </node>
        </node>
        <node concept="3cpWs6" id="6f9o7wY4VNY" role="3cqZAp">
          <node concept="1Ls8ON" id="6f9o7wY4VVm" role="3cqZAk">
            <node concept="3clFbT" id="6f9o7wY4Wpn" role="1Lso8e">
              <property role="3clFbU" value="true" />
            </node>
            <node concept="1y4W85" id="6f9o7wY5E5t" role="1Lso8e">
              <node concept="3cmrfG" id="6f9o7wY5Ea0" role="1y58nS">
                <property role="3cmrfH" value="0" />
              </node>
              <node concept="2OqwBi" id="6f9o7wY5ChS" role="1y566C">
                <node concept="13iPFW" id="6f9o7wY5BEP" role="2Oq$k0" />
                <node concept="3Tsc0h" id="6f9o7wY5Crl" role="2OqNvi">
                  <ref role="3TtcxE" to="ynv:7M2dKfl0ybK" resolve="edges" />
                </node>
              </node>
            </node>
          </node>
        </node>
      </node>
      <node concept="1LlUBW" id="6f9o7wY4VD$" role="3clF45">
        <node concept="10P_77" id="6f9o7wY4VGK" role="1Lm7xW" />
        <node concept="3Tqbb2" id="6f9o7wY4VJe" role="1Lm7xW">
          <ref role="ehGHo" to="ynv:7M2dKfl0rra" resolve="Edge" />
        </node>
      </node>
    </node>
    <node concept="13i0hz" id="6f9o7wY9PAS" role="13h7CS">
      <property role="TrG5h" value="getNodeDirections" />
      <node concept="3Tm1VV" id="6f9o7wY9PAT" role="1B3o_S" />
      <node concept="3clFbS" id="6f9o7wY9PAU" role="3clF47">
        <node concept="3cpWs8" id="6f9o7wYarrN" role="3cqZAp">
          <node concept="3cpWsn" id="6f9o7wYarrQ" role="3cpWs9">
            <property role="TrG5h" value="directions" />
            <node concept="_YKpA" id="6f9o7wYarrJ" role="1tU5fm">
              <node concept="17QB3L" id="6f9o7wYarAI" role="_ZDj9" />
            </node>
            <node concept="2ShNRf" id="6f9o7wYatZ$" role="33vP2m">
              <node concept="Tc6Ow" id="6f9o7wYau9k" role="2ShVmc">
                <node concept="17QB3L" id="6f9o7wYauvc" role="HW$YZ" />
                <node concept="3cmrfG" id="7XkdRUQx0rl" role="3lWHg$">
                  <property role="3cmrfH" value="4" />
                </node>
              </node>
            </node>
          </node>
        </node>
        <node concept="3clFbF" id="6f9o7wYaAqr" role="3cqZAp">
          <node concept="2OqwBi" id="6f9o7wYaBAz" role="3clFbG">
            <node concept="37vLTw" id="6f9o7wYaAqp" role="2Oq$k0">
              <ref role="3cqZAo" node="6f9o7wYarrQ" resolve="directions" />
            </node>
            <node concept="TSZUe" id="6f9o7wYaCfn" role="2OqNvi">
              <node concept="Xl_RD" id="6f9o7wYaCme" role="25WWJ7">
                <property role="Xl_RC" value="top" />
              </node>
            </node>
          </node>
        </node>
        <node concept="3clFbF" id="6f9o7wYaDL$" role="3cqZAp">
          <node concept="2OqwBi" id="6f9o7wYaE$P" role="3clFbG">
            <node concept="37vLTw" id="6f9o7wYaDLy" role="2Oq$k0">
              <ref role="3cqZAo" node="6f9o7wYarrQ" resolve="directions" />
            </node>
            <node concept="TSZUe" id="6f9o7wYaFe2" role="2OqNvi">
              <node concept="Xl_RD" id="6f9o7wYaFqX" role="25WWJ7">
                <property role="Xl_RC" value="left" />
              </node>
            </node>
          </node>
        </node>
        <node concept="3clFbF" id="6f9o7wYaG07" role="3cqZAp">
          <node concept="2OqwBi" id="6f9o7wYaGQN" role="3clFbG">
            <node concept="37vLTw" id="6f9o7wYaG05" role="2Oq$k0">
              <ref role="3cqZAo" node="6f9o7wYarrQ" resolve="directions" />
            </node>
            <node concept="TSZUe" id="6f9o7wYaHn$" role="2OqNvi">
              <node concept="Xl_RD" id="6f9o7wYaH_k" role="25WWJ7">
                <property role="Xl_RC" value="right" />
              </node>
            </node>
          </node>
        </node>
        <node concept="3clFbF" id="6f9o7wYaCEw" role="3cqZAp">
          <node concept="2OqwBi" id="6f9o7wYaCSv" role="3clFbG">
            <node concept="37vLTw" id="6f9o7wYaCEu" role="2Oq$k0">
              <ref role="3cqZAo" node="6f9o7wYarrQ" resolve="directions" />
            </node>
            <node concept="TSZUe" id="6f9o7wYaCYQ" role="2OqNvi">
              <node concept="Xl_RD" id="6f9o7wYaDa0" role="25WWJ7">
                <property role="Xl_RC" value="bottom" />
              </node>
            </node>
          </node>
        </node>
        <node concept="3clFbH" id="6f9o7wYa$Tv" role="3cqZAp" />
        <node concept="3clFbH" id="6f9o7wYay1k" role="3cqZAp" />
        <node concept="3cpWs8" id="6f9o7wY9PAV" role="3cqZAp">
          <node concept="3cpWsn" id="6f9o7wY9PAW" role="3cpWs9">
            <property role="TrG5h" value="nodeEdges" />
            <node concept="_YKpA" id="6f9o7wY9PAX" role="1tU5fm">
              <node concept="3Tqbb2" id="6f9o7wY9PAY" role="_ZDj9">
                <ref role="ehGHo" to="ynv:7M2dKfl0rra" resolve="Edge" />
              </node>
            </node>
            <node concept="2OqwBi" id="6f9o7wYa2TF" role="33vP2m">
              <node concept="2OqwBi" id="6f9o7wY9PAZ" role="2Oq$k0">
                <node concept="2OqwBi" id="6f9o7wY9PB2" role="2Oq$k0">
                  <node concept="13iPFW" id="6f9o7wY9PB3" role="2Oq$k0" />
                  <node concept="3Tsc0h" id="6f9o7wY9PB4" role="2OqNvi">
                    <ref role="3TtcxE" to="ynv:7M2dKfl0ybK" resolve="edges" />
                  </node>
                </node>
                <node concept="3zZkjj" id="6f9o7wY9Wwj" role="2OqNvi">
                  <node concept="1bVj0M" id="6f9o7wY9Wwk" role="23t8la">
                    <node concept="3clFbS" id="6f9o7wY9Wwl" role="1bW5cS">
                      <node concept="3clFbF" id="6f9o7wY9WBe" role="3cqZAp">
                        <node concept="22lmx$" id="6f9o7wY9YXE" role="3clFbG">
                          <node concept="3clFbC" id="6f9o7wYa0QG" role="3uHU7w">
                            <node concept="2OqwBi" id="6f9o7wYa15M" role="3uHU7w">
                              <node concept="37vLTw" id="6f9o7wYa0YY" role="2Oq$k0">
                                <ref role="3cqZAo" node="6f9o7wY9PC2" resolve="node" />
                              </node>
                              <node concept="3TrcHB" id="6f9o7wYa195" role="2OqNvi">
                                <ref role="3TsBF5" to="tpck:h0TrG11" resolve="name" />
                              </node>
                            </node>
                            <node concept="2OqwBi" id="6f9o7wYa08d" role="3uHU7B">
                              <node concept="2OqwBi" id="6f9o7wY9Z9R" role="2Oq$k0">
                                <node concept="37vLTw" id="6f9o7wY9Z1F" role="2Oq$k0">
                                  <ref role="3cqZAo" node="6f9o7wY9Wwm" resolve="it" />
                                </node>
                                <node concept="3TrEf2" id="6f9o7wYa03w" role="2OqNvi">
                                  <ref role="3Tt5mk" to="ynv:3W99A5ss2wp" resolve="node2" />
                                </node>
                              </node>
                              <node concept="3TrcHB" id="6f9o7wYa0q8" role="2OqNvi">
                                <ref role="3TsBF5" to="tpck:h0TrG11" resolve="name" />
                              </node>
                            </node>
                          </node>
                          <node concept="3clFbC" id="6f9o7wY9XLK" role="3uHU7B">
                            <node concept="2OqwBi" id="6f9o7wY9X4L" role="3uHU7B">
                              <node concept="2OqwBi" id="6f9o7wY9WKz" role="2Oq$k0">
                                <node concept="37vLTw" id="6f9o7wY9WBd" role="2Oq$k0">
                                  <ref role="3cqZAo" node="6f9o7wY9Wwm" resolve="it" />
                                </node>
                                <node concept="3TrEf2" id="6f9o7wY9WQL" role="2OqNvi">
                                  <ref role="3Tt5mk" to="ynv:3W99A5ss2wn" resolve="node1" />
                                </node>
                              </node>
                              <node concept="3TrcHB" id="6f9o7wY9XhH" role="2OqNvi">
                                <ref role="3TsBF5" to="tpck:h0TrG11" resolve="name" />
                              </node>
                            </node>
                            <node concept="2OqwBi" id="6f9o7wY9YAm" role="3uHU7w">
                              <node concept="37vLTw" id="6f9o7wY9YbF" role="2Oq$k0">
                                <ref role="3cqZAo" node="6f9o7wY9PC2" resolve="node" />
                              </node>
                              <node concept="3TrcHB" id="6f9o7wY9YPX" role="2OqNvi">
                                <ref role="3TsBF5" to="tpck:h0TrG11" resolve="name" />
                              </node>
                            </node>
                          </node>
                        </node>
                      </node>
                    </node>
                    <node concept="Rh6nW" id="6f9o7wY9Wwm" role="1bW2Oz">
                      <property role="TrG5h" value="it" />
                      <node concept="2jxLKc" id="6f9o7wY9Wwn" role="1tU5fm" />
                    </node>
                  </node>
                </node>
              </node>
              <node concept="ANE8D" id="6f9o7wYa3cY" role="2OqNvi" />
            </node>
          </node>
        </node>
        <node concept="3cpWs8" id="6f9o7wYa3WN" role="3cqZAp">
          <node concept="3cpWsn" id="6f9o7wYa3WQ" role="3cpWs9">
            <property role="TrG5h" value="nodeNeighbours" />
            <node concept="_YKpA" id="6f9o7wYa3WJ" role="1tU5fm">
              <node concept="3Tqbb2" id="6f9o7wYa48M" role="_ZDj9">
                <ref role="ehGHo" to="ynv:7M2dKfl0rrg" resolve="Node" />
              </node>
            </node>
            <node concept="2ShNRf" id="6f9o7wYaelW" role="33vP2m">
              <node concept="Tc6Ow" id="6f9o7wYaf7X" role="2ShVmc">
                <node concept="3Tqbb2" id="6f9o7wYafEf" role="HW$YZ">
                  <ref role="ehGHo" to="ynv:7M2dKfl0rrg" resolve="Node" />
                </node>
              </node>
            </node>
          </node>
        </node>
        <node concept="2Gpval" id="6f9o7wYa3nK" role="3cqZAp">
          <node concept="2GrKxI" id="6f9o7wYa3nM" role="2Gsz3X">
            <property role="TrG5h" value="edge" />
          </node>
          <node concept="37vLTw" id="6f9o7wYa3uX" role="2GsD0m">
            <ref role="3cqZAo" node="6f9o7wY9PAW" resolve="nodeEdges" />
          </node>
          <node concept="3clFbS" id="6f9o7wYa3nQ" role="2LFqv$">
            <node concept="3clFbJ" id="6f9o7wYa4fR" role="3cqZAp">
              <node concept="3clFbC" id="6f9o7wYa4L3" role="3clFbw">
                <node concept="2OqwBi" id="6f9o7wYa4U4" role="3uHU7w">
                  <node concept="37vLTw" id="6f9o7wYa4TJ" role="2Oq$k0">
                    <ref role="3cqZAo" node="6f9o7wY9PC2" resolve="node" />
                  </node>
                  <node concept="3TrcHB" id="6f9o7wYa531" role="2OqNvi">
                    <ref role="3TsBF5" to="tpck:h0TrG11" resolve="name" />
                  </node>
                </node>
                <node concept="2OqwBi" id="6f9o7wYagNv" role="3uHU7B">
                  <node concept="2OqwBi" id="6f9o7wYa4l1" role="2Oq$k0">
                    <node concept="2GrUjf" id="6f9o7wYa4gY" role="2Oq$k0">
                      <ref role="2Gs0qQ" node="6f9o7wYa3nM" resolve="edge" />
                    </node>
                    <node concept="3TrEf2" id="6f9o7wYa4wU" role="2OqNvi">
                      <ref role="3Tt5mk" to="ynv:3W99A5ss2wn" resolve="node1" />
                    </node>
                  </node>
                  <node concept="3TrcHB" id="6f9o7wYah5t" role="2OqNvi">
                    <ref role="3TsBF5" to="tpck:h0TrG11" resolve="name" />
                  </node>
                </node>
              </node>
              <node concept="3clFbS" id="6f9o7wYa4fT" role="3clFbx">
                <node concept="3clFbF" id="6f9o7wYa5q$" role="3cqZAp">
                  <node concept="2OqwBi" id="6f9o7wYa6Yq" role="3clFbG">
                    <node concept="37vLTw" id="6f9o7wYa5qz" role="2Oq$k0">
                      <ref role="3cqZAo" node="6f9o7wYa3WQ" resolve="nodeNeighbours" />
                    </node>
                    <node concept="TSZUe" id="6f9o7wYa8rK" role="2OqNvi">
                      <node concept="2OqwBi" id="6f9o7wYa8HG" role="25WWJ7">
                        <node concept="2GrUjf" id="6f9o7wYa8zx" role="2Oq$k0">
                          <ref role="2Gs0qQ" node="6f9o7wYa3nM" resolve="edge" />
                        </node>
                        <node concept="3TrEf2" id="6f9o7wYa9rt" role="2OqNvi">
                          <ref role="3Tt5mk" to="ynv:3W99A5ss2wp" resolve="node2" />
                        </node>
                      </node>
                    </node>
                  </node>
                </node>
              </node>
              <node concept="9aQIb" id="6f9o7wYa9wD" role="9aQIa">
                <node concept="3clFbS" id="6f9o7wYa9wE" role="9aQI4">
                  <node concept="3clFbF" id="6f9o7wYa9_y" role="3cqZAp">
                    <node concept="2OqwBi" id="6f9o7wYabuN" role="3clFbG">
                      <node concept="37vLTw" id="6f9o7wYa9_x" role="2Oq$k0">
                        <ref role="3cqZAo" node="6f9o7wYa3WQ" resolve="nodeNeighbours" />
                      </node>
                      <node concept="TSZUe" id="6f9o7wYad5B" role="2OqNvi">
                        <node concept="2OqwBi" id="6f9o7wYadkR" role="25WWJ7">
                          <node concept="2GrUjf" id="6f9o7wYadah" role="2Oq$k0">
                            <ref role="2Gs0qQ" node="6f9o7wYa3nM" resolve="edge" />
                          </node>
                          <node concept="3TrEf2" id="6f9o7wYae3j" role="2OqNvi">
                            <ref role="3Tt5mk" to="ynv:3W99A5ss2wn" resolve="node1" />
                          </node>
                        </node>
                      </node>
                    </node>
                  </node>
                </node>
              </node>
            </node>
          </node>
        </node>
        <node concept="3clFbH" id="6f9o7wY9PBU" role="3cqZAp" />
        <node concept="2Gpval" id="6f9o7wYahaV" role="3cqZAp">
          <node concept="2GrKxI" id="6f9o7wYahaX" role="2Gsz3X">
            <property role="TrG5h" value="neighbour" />
          </node>
          <node concept="37vLTw" id="6f9o7wYahxB" role="2GsD0m">
            <ref role="3cqZAo" node="6f9o7wYa3WQ" resolve="nodeNeighbours" />
          </node>
          <node concept="3clFbS" id="6f9o7wYahb1" role="2LFqv$">
            <node concept="3clFbJ" id="6f9o7wYalJR" role="3cqZAp">
              <node concept="3clFbC" id="6f9o7wYans7" role="3clFbw">
                <node concept="2OqwBi" id="6f9o7wYaocK" role="3uHU7w">
                  <node concept="37vLTw" id="6f9o7wYanUy" role="2Oq$k0">
                    <ref role="3cqZAo" node="6f9o7wY9PC2" resolve="node" />
                  </node>
                  <node concept="3TrcHB" id="6f9o7wYaoe_" role="2OqNvi">
                    <ref role="3TsBF5" to="ynv:6f9o7wY4y8I" resolve="x" />
                  </node>
                </node>
                <node concept="2OqwBi" id="6f9o7wYalTn" role="3uHU7B">
                  <node concept="2GrUjf" id="6f9o7wYalLa" role="2Oq$k0">
                    <ref role="2Gs0qQ" node="6f9o7wYahaX" resolve="neighbour" />
                  </node>
                  <node concept="3TrcHB" id="6f9o7wYam9w" role="2OqNvi">
                    <ref role="3TsBF5" to="ynv:6f9o7wY4y8I" resolve="x" />
                  </node>
                </node>
              </node>
              <node concept="3clFbS" id="6f9o7wYalJT" role="3clFbx">
                <node concept="3clFbJ" id="6f9o7wYaoo9" role="3cqZAp">
                  <node concept="3eOSWO" id="6f9o7wYaqwF" role="3clFbw">
                    <node concept="2OqwBi" id="6f9o7wYaqQM" role="3uHU7w">
                      <node concept="37vLTw" id="6f9o7wYaq_1" role="2Oq$k0">
                        <ref role="3cqZAo" node="6f9o7wY9PC2" resolve="node" />
                      </node>
                      <node concept="3TrcHB" id="6f9o7wYaqRX" role="2OqNvi">
                        <ref role="3TsBF5" to="ynv:6f9o7wY4y8L" resolve="y" />
                      </node>
                    </node>
                    <node concept="2OqwBi" id="6f9o7wYaoxt" role="3uHU7B">
                      <node concept="2GrUjf" id="6f9o7wYaops" role="2Oq$k0">
                        <ref role="2Gs0qQ" node="6f9o7wYahaX" resolve="neighbour" />
                      </node>
                      <node concept="3TrcHB" id="6f9o7wYapeT" role="2OqNvi">
                        <ref role="3TsBF5" to="ynv:6f9o7wY4y8L" resolve="y" />
                      </node>
                    </node>
                  </node>
                  <node concept="3clFbS" id="6f9o7wYaoob" role="3clFbx">
                    <node concept="3clFbF" id="6f9o7wYas2r" role="3cqZAp">
                      <node concept="2OqwBi" id="6f9o7wYasFX" role="3clFbG">
                        <node concept="37vLTw" id="6f9o7wYas2q" role="2Oq$k0">
                          <ref role="3cqZAo" node="6f9o7wYarrQ" resolve="directions" />
                        </node>
                        <node concept="3dhRuq" id="6f9o7wYaI$z" role="2OqNvi">
                          <node concept="Xl_RD" id="6f9o7wYaJh6" role="25WWJ7">
                            <property role="Xl_RC" value="top" />
                          </node>
                        </node>
                      </node>
                    </node>
                  </node>
                  <node concept="9aQIb" id="6f9o7wYaJ$Z" role="9aQIa">
                    <node concept="3clFbS" id="6f9o7wYaJ_0" role="9aQI4">
                      <node concept="3clFbF" id="6f9o7wYaK5y" role="3cqZAp">
                        <node concept="2OqwBi" id="6f9o7wYaKIt" role="3clFbG">
                          <node concept="37vLTw" id="6f9o7wYaK5x" role="2Oq$k0">
                            <ref role="3cqZAo" node="6f9o7wYarrQ" resolve="directions" />
                          </node>
                          <node concept="3dhRuq" id="6f9o7wYaLo4" role="2OqNvi">
                            <node concept="Xl_RD" id="6f9o7wYaLvW" role="25WWJ7">
                              <property role="Xl_RC" value="bottom" />
                            </node>
                          </node>
                        </node>
                      </node>
                    </node>
                  </node>
                </node>
              </node>
              <node concept="9aQIb" id="6f9o7wYaoiX" role="9aQIa">
                <node concept="3clFbS" id="6f9o7wYaoiY" role="9aQI4">
                  <node concept="3clFbJ" id="6f9o7wYaMaz" role="3cqZAp">
                    <node concept="3eOSWO" id="6f9o7wYaMa$" role="3clFbw">
                      <node concept="2OqwBi" id="6f9o7wYaMa_" role="3uHU7w">
                        <node concept="37vLTw" id="6f9o7wYaMaA" role="2Oq$k0">
                          <ref role="3cqZAo" node="6f9o7wY9PC2" resolve="node" />
                        </node>
                        <node concept="3TrcHB" id="6f9o7wYaP7m" role="2OqNvi">
                          <ref role="3TsBF5" to="ynv:6f9o7wY4y8I" resolve="x" />
                        </node>
                      </node>
                      <node concept="2OqwBi" id="6f9o7wYaMaC" role="3uHU7B">
                        <node concept="2GrUjf" id="6f9o7wYaMaD" role="2Oq$k0">
                          <ref role="2Gs0qQ" node="6f9o7wYahaX" resolve="neighbour" />
                        </node>
                        <node concept="3TrcHB" id="6f9o7wYaOEN" role="2OqNvi">
                          <ref role="3TsBF5" to="ynv:6f9o7wY4y8I" resolve="x" />
                        </node>
                      </node>
                    </node>
                    <node concept="3clFbS" id="6f9o7wYaMaF" role="3clFbx">
                      <node concept="3clFbF" id="6f9o7wYaMaG" role="3cqZAp">
                        <node concept="2OqwBi" id="6f9o7wYaMaH" role="3clFbG">
                          <node concept="37vLTw" id="6f9o7wYaMaI" role="2Oq$k0">
                            <ref role="3cqZAo" node="6f9o7wYarrQ" resolve="directions" />
                          </node>
                          <node concept="3dhRuq" id="6f9o7wYaMaJ" role="2OqNvi">
                            <node concept="Xl_RD" id="6f9o7wYaMaK" role="25WWJ7">
                              <property role="Xl_RC" value="right" />
                            </node>
                          </node>
                        </node>
                      </node>
                    </node>
                    <node concept="9aQIb" id="6f9o7wYaMaL" role="9aQIa">
                      <node concept="3clFbS" id="6f9o7wYaMaM" role="9aQI4">
                        <node concept="3clFbF" id="6f9o7wYaMaN" role="3cqZAp">
                          <node concept="2OqwBi" id="6f9o7wYaMaO" role="3clFbG">
                            <node concept="37vLTw" id="6f9o7wYaMaP" role="2Oq$k0">
                              <ref role="3cqZAo" node="6f9o7wYarrQ" resolve="directions" />
                            </node>
                            <node concept="3dhRuq" id="6f9o7wYaMaQ" role="2OqNvi">
                              <node concept="Xl_RD" id="6f9o7wYaMaR" role="25WWJ7">
                                <property role="Xl_RC" value="left" />
                              </node>
                            </node>
                          </node>
                        </node>
                      </node>
                    </node>
                  </node>
                </node>
              </node>
            </node>
          </node>
        </node>
        <node concept="3cpWs6" id="6f9o7wYaRx$" role="3cqZAp">
          <node concept="37vLTw" id="6f9o7wYaRIq" role="3cqZAk">
            <ref role="3cqZAo" node="6f9o7wYarrQ" resolve="directions" />
          </node>
        </node>
      </node>
      <node concept="_YKpA" id="6f9o7wY9PC0" role="3clF45">
        <node concept="17QB3L" id="6f9o7wY9PC1" role="_ZDj9" />
      </node>
      <node concept="37vLTG" id="6f9o7wY9PC2" role="3clF46">
        <property role="TrG5h" value="node" />
        <node concept="3Tqbb2" id="6f9o7wY9PC3" role="1tU5fm">
          <ref role="ehGHo" to="ynv:7M2dKfl0rrg" resolve="Node" />
        </node>
      </node>
    </node>
  </node>
  <node concept="13h7C7" id="6f9o7wYb2Ee">
    <ref role="13h7C2" to="ynv:7M2dKfl0rrg" resolve="Node" />
    <node concept="13hLZK" id="6f9o7wYb2Ef" role="13h7CW">
      <node concept="3clFbS" id="6f9o7wYb2Eg" role="2VODD2" />
    </node>
    <node concept="13i0hz" id="6f9o7wYb2GJ" role="13h7CS">
      <property role="TrG5h" value="test" />
      <node concept="3Tm1VV" id="6f9o7wYb2GK" role="1B3o_S" />
      <node concept="10Oyi0" id="6f9o7wYb2HM" role="3clF45" />
      <node concept="3clFbS" id="6f9o7wYb2GM" role="3clF47">
        <node concept="3cpWs6" id="6f9o7wYb2JU" role="3cqZAp">
          <node concept="3cmrfG" id="6f9o7wYb2Kb" role="3cqZAk">
            <property role="3cmrfH" value="1" />
          </node>
        </node>
      </node>
    </node>
  </node>
</model>

