<?xml version="1.0" encoding="UTF-8"?>
<model ref="r:f3ab4a85-8e30-418c-8d5e-d1805d59fe4a(FacilityProduct.generator.templates@generator)">
  <persistence version="9" />
  <languages>
    <use id="d7706f63-9be2-479c-a3da-ae92af1e64d5" name="jetbrains.mps.lang.generator.generationContext" version="2" />
    <devkit ref="a2eb3a43-fcc2-4200-80dc-c60110c4862d(jetbrains.mps.devkit.templates)" />
  </languages>
  <imports>
    <import index="ynv" ref="r:482d45f2-47b2-4909-b645-235519915cd5(FacilityProduct.structure)" />
    <import index="dxuu" ref="6354ebe7-c22a-4a0f-ac54-50b52ab9b065/java:javax.swing(JDK/)" />
    <import index="z60i" ref="6354ebe7-c22a-4a0f-ac54-50b52ab9b065/java:java.awt(JDK/)" />
    <import index="guwi" ref="6354ebe7-c22a-4a0f-ac54-50b52ab9b065/java:java.io(JDK/)" />
    <import index="tpck" ref="r:00000000-0000-4000-0000-011c89590288(jetbrains.mps.lang.core.structure)" />
    <import index="tdwz" ref="r:96384125-9fb8-4b05-b3d3-e72eaf6773bd(FacilityProduct.behavior)" implicit="true" />
    <import index="wyt6" ref="6354ebe7-c22a-4a0f-ac54-50b52ab9b065/java:java.lang(JDK/)" implicit="true" />
  </imports>
  <registry>
    <language id="f3061a53-9226-4cc5-a443-f952ceaf5816" name="jetbrains.mps.baseLanguage">
      <concept id="1082485599095" name="jetbrains.mps.baseLanguage.structure.BlockStatement" flags="nn" index="9aQIb">
        <child id="1082485599096" name="statements" index="9aQI4" />
      </concept>
      <concept id="1215693861676" name="jetbrains.mps.baseLanguage.structure.BaseAssignmentExpression" flags="nn" index="d038R">
        <child id="1068498886297" name="rValue" index="37vLTx" />
        <child id="1068498886295" name="lValue" index="37vLTJ" />
      </concept>
      <concept id="1202948039474" name="jetbrains.mps.baseLanguage.structure.InstanceMethodCallOperation" flags="nn" index="liA8E" />
      <concept id="1465982738277781862" name="jetbrains.mps.baseLanguage.structure.PlaceholderMember" flags="nn" index="2tJIrI" />
      <concept id="1188207840427" name="jetbrains.mps.baseLanguage.structure.AnnotationInstance" flags="nn" index="2AHcQZ">
        <reference id="1188208074048" name="annotation" index="2AI5Lk" />
      </concept>
      <concept id="1188208481402" name="jetbrains.mps.baseLanguage.structure.HasAnnotation" flags="ng" index="2AJDlI">
        <child id="1188208488637" name="annotation" index="2AJF6D" />
      </concept>
      <concept id="2820489544401957797" name="jetbrains.mps.baseLanguage.structure.DefaultClassCreator" flags="nn" index="HV5vD">
        <reference id="2820489544401957798" name="classifier" index="HV5vE" />
      </concept>
      <concept id="1197027756228" name="jetbrains.mps.baseLanguage.structure.DotExpression" flags="nn" index="2OqwBi">
        <child id="1197027771414" name="operand" index="2Oq$k0" />
        <child id="1197027833540" name="operation" index="2OqNvi" />
      </concept>
      <concept id="1145552977093" name="jetbrains.mps.baseLanguage.structure.GenericNewExpression" flags="nn" index="2ShNRf">
        <child id="1145553007750" name="creator" index="2ShVmc" />
      </concept>
      <concept id="1137021947720" name="jetbrains.mps.baseLanguage.structure.ConceptFunction" flags="in" index="2VMwT0">
        <child id="1137022507850" name="body" index="2VODD2" />
      </concept>
      <concept id="1070475354124" name="jetbrains.mps.baseLanguage.structure.ThisExpression" flags="nn" index="Xjq3P" />
      <concept id="1070475926800" name="jetbrains.mps.baseLanguage.structure.StringLiteral" flags="nn" index="Xl_RD">
        <property id="1070475926801" name="value" index="Xl_RC" />
      </concept>
      <concept id="1182160077978" name="jetbrains.mps.baseLanguage.structure.AnonymousClassCreator" flags="nn" index="YeOm9">
        <child id="1182160096073" name="cls" index="YeSDq" />
      </concept>
      <concept id="1081236700938" name="jetbrains.mps.baseLanguage.structure.StaticMethodDeclaration" flags="ig" index="2YIFZL" />
      <concept id="1070533707846" name="jetbrains.mps.baseLanguage.structure.StaticFieldReference" flags="nn" index="10M0yZ">
        <reference id="1144433057691" name="classifier" index="1PxDUh" />
      </concept>
      <concept id="1070534058343" name="jetbrains.mps.baseLanguage.structure.NullLiteral" flags="nn" index="10Nm6u" />
      <concept id="1070534370425" name="jetbrains.mps.baseLanguage.structure.IntegerType" flags="in" index="10Oyi0" />
      <concept id="1070534644030" name="jetbrains.mps.baseLanguage.structure.BooleanType" flags="in" index="10P_77" />
      <concept id="1070534760951" name="jetbrains.mps.baseLanguage.structure.ArrayType" flags="in" index="10Q1$e">
        <child id="1070534760952" name="componentType" index="10Q1$1" />
      </concept>
      <concept id="1068390468200" name="jetbrains.mps.baseLanguage.structure.FieldDeclaration" flags="ig" index="312cEg">
        <property id="8606350594693632173" name="isTransient" index="eg7rD" />
        <property id="1240249534625" name="isVolatile" index="34CwA1" />
      </concept>
      <concept id="1068390468198" name="jetbrains.mps.baseLanguage.structure.ClassConcept" flags="ig" index="312cEu">
        <child id="1165602531693" name="superclass" index="1zkMxy" />
      </concept>
      <concept id="1068431474542" name="jetbrains.mps.baseLanguage.structure.VariableDeclaration" flags="ng" index="33uBYm">
        <property id="1176718929932" name="isFinal" index="3TUv4t" />
        <child id="1068431790190" name="initializer" index="33vP2m" />
      </concept>
      <concept id="1068498886296" name="jetbrains.mps.baseLanguage.structure.VariableReference" flags="nn" index="37vLTw">
        <reference id="1068581517664" name="variableDeclaration" index="3cqZAo" />
      </concept>
      <concept id="1068498886292" name="jetbrains.mps.baseLanguage.structure.ParameterDeclaration" flags="ir" index="37vLTG" />
      <concept id="1225271177708" name="jetbrains.mps.baseLanguage.structure.StringType" flags="in" index="17QB3L" />
      <concept id="4972933694980447171" name="jetbrains.mps.baseLanguage.structure.BaseVariableDeclaration" flags="ng" index="19Szcq">
        <child id="5680397130376446158" name="type" index="1tU5fm" />
      </concept>
      <concept id="1068580123132" name="jetbrains.mps.baseLanguage.structure.BaseMethodDeclaration" flags="ng" index="3clF44">
        <property id="4276006055363816570" name="isSynchronized" index="od$2w" />
        <property id="1181808852946" name="isFinal" index="DiZV1" />
        <child id="1068580123133" name="returnType" index="3clF45" />
        <child id="1068580123134" name="parameter" index="3clF46" />
        <child id="1068580123135" name="body" index="3clF47" />
      </concept>
      <concept id="1068580123165" name="jetbrains.mps.baseLanguage.structure.InstanceMethodDeclaration" flags="ig" index="3clFb_">
        <property id="1178608670077" name="isAbstract" index="1EzhhJ" />
      </concept>
      <concept id="1068580123155" name="jetbrains.mps.baseLanguage.structure.ExpressionStatement" flags="nn" index="3clFbF">
        <child id="1068580123156" name="expression" index="3clFbG" />
      </concept>
      <concept id="1068580123157" name="jetbrains.mps.baseLanguage.structure.Statement" flags="nn" index="3clFbH" />
      <concept id="1068580123159" name="jetbrains.mps.baseLanguage.structure.IfStatement" flags="nn" index="3clFbJ">
        <child id="1068580123160" name="condition" index="3clFbw" />
        <child id="1068580123161" name="ifTrue" index="3clFbx" />
      </concept>
      <concept id="1068580123136" name="jetbrains.mps.baseLanguage.structure.StatementList" flags="sn" stub="5293379017992965193" index="3clFbS">
        <child id="1068581517665" name="statement" index="3cqZAp" />
      </concept>
      <concept id="1068580123137" name="jetbrains.mps.baseLanguage.structure.BooleanConstant" flags="nn" index="3clFbT">
        <property id="1068580123138" name="value" index="3clFbU" />
      </concept>
      <concept id="1068580320020" name="jetbrains.mps.baseLanguage.structure.IntegerConstant" flags="nn" index="3cmrfG">
        <property id="1068580320021" name="value" index="3cmrfH" />
      </concept>
      <concept id="1068581242875" name="jetbrains.mps.baseLanguage.structure.PlusExpression" flags="nn" index="3cpWs3" />
      <concept id="1068581242864" name="jetbrains.mps.baseLanguage.structure.LocalVariableDeclarationStatement" flags="nn" index="3cpWs8">
        <child id="1068581242865" name="localVariableDeclaration" index="3cpWs9" />
      </concept>
      <concept id="1068581242863" name="jetbrains.mps.baseLanguage.structure.LocalVariableDeclaration" flags="nr" index="3cpWsn" />
      <concept id="1068581517677" name="jetbrains.mps.baseLanguage.structure.VoidType" flags="in" index="3cqZAl" />
      <concept id="1204053956946" name="jetbrains.mps.baseLanguage.structure.IMethodCall" flags="ng" index="1ndlxa">
        <reference id="1068499141037" name="baseMethodDeclaration" index="37wK5l" />
        <child id="1068499141038" name="actualArgument" index="37wK5m" />
      </concept>
      <concept id="1073063089578" name="jetbrains.mps.baseLanguage.structure.SuperMethodCall" flags="nn" index="3nyPlj" />
      <concept id="1212685548494" name="jetbrains.mps.baseLanguage.structure.ClassCreator" flags="nn" index="1pGfFk" />
      <concept id="1107461130800" name="jetbrains.mps.baseLanguage.structure.Classifier" flags="ng" index="3pOWGL">
        <property id="521412098689998745" name="nonStatic" index="2bfB8j" />
        <child id="5375687026011219971" name="member" index="jymVt" unordered="true" />
      </concept>
      <concept id="1107535904670" name="jetbrains.mps.baseLanguage.structure.ClassifierType" flags="in" index="3uibUv">
        <reference id="1107535924139" name="classifier" index="3uigEE" />
      </concept>
      <concept id="1081773326031" name="jetbrains.mps.baseLanguage.structure.BinaryOperation" flags="nn" index="3uHJSO">
        <child id="1081773367579" name="rightExpression" index="3uHU7w" />
        <child id="1081773367580" name="leftExpression" index="3uHU7B" />
      </concept>
      <concept id="7024111702304495340" name="jetbrains.mps.baseLanguage.structure.MulAssignmentExpression" flags="nn" index="3vZbUc" />
      <concept id="1178549954367" name="jetbrains.mps.baseLanguage.structure.IVisible" flags="ng" index="1B3ioH">
        <child id="1178549979242" name="visibility" index="1B3o_S" />
      </concept>
      <concept id="1146644602865" name="jetbrains.mps.baseLanguage.structure.PublicVisibility" flags="nn" index="3Tm1VV" />
      <concept id="1146644623116" name="jetbrains.mps.baseLanguage.structure.PrivateVisibility" flags="nn" index="3Tm6S6" />
      <concept id="1146644641414" name="jetbrains.mps.baseLanguage.structure.ProtectedVisibility" flags="nn" index="3Tmbuc" />
      <concept id="1170345865475" name="jetbrains.mps.baseLanguage.structure.AnonymousClass" flags="ig" index="1Y3b0j">
        <reference id="1170346070688" name="classifier" index="1Y3XeK" />
      </concept>
    </language>
    <language id="b401a680-8325-4110-8fd3-84331ff25bef" name="jetbrains.mps.lang.generator">
      <concept id="1114706874351" name="jetbrains.mps.lang.generator.structure.CopySrcNodeMacro" flags="ln" index="29HgVG" />
      <concept id="1095416546421" name="jetbrains.mps.lang.generator.structure.MappingConfiguration" flags="ig" index="bUwia">
        <child id="1167328349397" name="reductionMappingRule" index="3acgRq" />
        <child id="1167514678247" name="rootMappingRule" index="3lj3bC" />
      </concept>
      <concept id="1168559333462" name="jetbrains.mps.lang.generator.structure.TemplateDeclarationReference" flags="ln" index="j$656" />
      <concept id="1168619357332" name="jetbrains.mps.lang.generator.structure.RootTemplateAnnotation" flags="lg" index="n94m4">
        <reference id="1168619429071" name="applicableConcept" index="n9lRv" />
      </concept>
      <concept id="1095672379244" name="jetbrains.mps.lang.generator.structure.TemplateFragment" flags="ng" index="raruj" />
      <concept id="1722980698497626400" name="jetbrains.mps.lang.generator.structure.ITemplateCall" flags="ng" index="v9R3L">
        <reference id="1722980698497626483" name="template" index="v9R2y" />
        <child id="1722980698497626405" name="actualArgument" index="v9R3O" />
      </concept>
      <concept id="1167169188348" name="jetbrains.mps.lang.generator.structure.TemplateFunctionParameter_sourceNode" flags="nn" index="30H73N" />
      <concept id="1167169308231" name="jetbrains.mps.lang.generator.structure.BaseMappingRule" flags="ng" index="30H$t8">
        <reference id="1167169349424" name="applicableConcept" index="30HIoZ" />
      </concept>
      <concept id="1092059087312" name="jetbrains.mps.lang.generator.structure.TemplateDeclaration" flags="ig" index="13MO4I">
        <reference id="1168285871518" name="applicableConcept" index="3gUMe" />
        <child id="1092060348987" name="contentNode" index="13RCb5" />
      </concept>
      <concept id="1087833241328" name="jetbrains.mps.lang.generator.structure.PropertyMacro" flags="ln" index="17Uvod">
        <child id="1167756362303" name="propertyValueFunction" index="3zH0cK" />
      </concept>
      <concept id="1167327847730" name="jetbrains.mps.lang.generator.structure.Reduction_MappingRule" flags="lg" index="3aamgX">
        <child id="1169672767469" name="ruleConsequence" index="1lVwrX" />
      </concept>
      <concept id="1167514355419" name="jetbrains.mps.lang.generator.structure.Root_MappingRule" flags="lg" index="3lhOvk">
        <reference id="1167514355421" name="template" index="3lhOvi" />
      </concept>
      <concept id="982871510064032177" name="jetbrains.mps.lang.generator.structure.IParameterizedTemplate" flags="ng" index="1s_3nv">
        <child id="982871510064032342" name="parameter" index="1s_3oS" />
      </concept>
      <concept id="1167756080639" name="jetbrains.mps.lang.generator.structure.PropertyMacro_GetPropertyValue" flags="in" index="3zFVjK" />
      <concept id="1167951910403" name="jetbrains.mps.lang.generator.structure.SourceSubstituteMacro_SourceNodesQuery" flags="in" index="3JmXsc" />
      <concept id="1805153994415891174" name="jetbrains.mps.lang.generator.structure.TemplateParameterDeclaration" flags="ng" index="1N15co">
        <child id="1805153994415893199" name="type" index="1N15GL" />
      </concept>
      <concept id="1118786554307" name="jetbrains.mps.lang.generator.structure.LoopMacro" flags="ln" index="1WS0z7">
        <child id="1167952069335" name="sourceNodesQuery" index="3Jn$fo" />
      </concept>
    </language>
    <language id="d7706f63-9be2-479c-a3da-ae92af1e64d5" name="jetbrains.mps.lang.generator.generationContext">
      <concept id="5190093307972723402" name="jetbrains.mps.lang.generator.generationContext.structure.GenerationContextOp_ParameterRef" flags="nn" index="3cR$yn">
        <reference id="5190093307972736266" name="parameter" index="3cRzXn" />
      </concept>
      <concept id="1216860049635" name="jetbrains.mps.lang.generator.generationContext.structure.TemplateFunctionParameter_generationContext" flags="nn" index="1iwH7S" />
    </language>
    <language id="7866978e-a0f0-4cc7-81bc-4d213d9375e1" name="jetbrains.mps.lang.smodel">
      <concept id="1177026924588" name="jetbrains.mps.lang.smodel.structure.RefConcept_Reference" flags="nn" index="chp4Y">
        <reference id="1177026940964" name="conceptDeclaration" index="cht4Q" />
      </concept>
      <concept id="1179409122411" name="jetbrains.mps.lang.smodel.structure.Node_ConceptMethodCall" flags="nn" index="2qgKlT" />
      <concept id="2396822768958367367" name="jetbrains.mps.lang.smodel.structure.AbstractTypeCastExpression" flags="nn" index="$5XWr">
        <child id="6733348108486823193" name="leftExpression" index="1m5AlR" />
        <child id="3906496115198199033" name="conceptArgument" index="3oSUPX" />
      </concept>
      <concept id="1139613262185" name="jetbrains.mps.lang.smodel.structure.Node_GetParentOperation" flags="nn" index="1mfA1w" />
      <concept id="1140137987495" name="jetbrains.mps.lang.smodel.structure.SNodeTypeCastExpression" flags="nn" index="1PxgMI" />
      <concept id="1138056022639" name="jetbrains.mps.lang.smodel.structure.SPropertyAccess" flags="nn" index="3TrcHB">
        <reference id="1138056395725" name="property" index="3TsBF5" />
      </concept>
      <concept id="1138056143562" name="jetbrains.mps.lang.smodel.structure.SLinkAccess" flags="nn" index="3TrEf2">
        <reference id="1138056516764" name="link" index="3Tt5mk" />
      </concept>
      <concept id="1138056282393" name="jetbrains.mps.lang.smodel.structure.SLinkListAccess" flags="nn" index="3Tsc0h">
        <reference id="1138056546658" name="link" index="3TtcxE" />
      </concept>
    </language>
    <language id="ceab5195-25ea-4f22-9b92-103b95ca8c0c" name="jetbrains.mps.lang.core">
      <concept id="1133920641626" name="jetbrains.mps.lang.core.structure.BaseConcept" flags="ng" index="2VYdi">
        <child id="5169995583184591170" name="smodelAttribute" index="lGtFl" />
      </concept>
      <concept id="3364660638048049750" name="jetbrains.mps.lang.core.structure.PropertyAttribute" flags="ng" index="A9Btg">
        <property id="1757699476691236117" name="name_DebugInfo" index="2qtEX9" />
        <property id="1341860900487648621" name="propertyId" index="P4ACc" />
      </concept>
      <concept id="1169194658468" name="jetbrains.mps.lang.core.structure.INamedConcept" flags="ng" index="TrEIO">
        <property id="1169194664001" name="name" index="TrG5h" />
      </concept>
    </language>
    <language id="83888646-71ce-4f1c-9c53-c54016f6ad4f" name="jetbrains.mps.baseLanguage.collections">
      <concept id="540871147943773365" name="jetbrains.mps.baseLanguage.collections.structure.SingleArgumentSequenceOperation" flags="nn" index="25WWJ4">
        <child id="540871147943773366" name="argument" index="25WWJ7" />
      </concept>
      <concept id="1151688443754" name="jetbrains.mps.baseLanguage.collections.structure.ListType" flags="in" index="_YKpA">
        <child id="1151688676805" name="elementType" index="_ZDj9" />
      </concept>
      <concept id="1172254888721" name="jetbrains.mps.baseLanguage.collections.structure.ContainsOperation" flags="nn" index="3JPx81" />
    </language>
  </registry>
  <node concept="bUwia" id="7tD6xfvPKoI">
    <property role="TrG5h" value="main" />
    <node concept="3lhOvk" id="36iPLFIat7x" role="3lj3bC">
      <ref role="30HIoZ" to="ynv:3W99A5ss120" resolve="Facility" />
      <ref role="3lhOvi" node="36iPLFIayCh" resolve="MyFacility" />
    </node>
    <node concept="3aamgX" id="36iPLFIaVv0" role="3acgRq">
      <ref role="30HIoZ" to="ynv:7M2dKfl0rrg" resolve="Node" />
      <node concept="j$656" id="36iPLFIb7oj" role="1lVwrX">
        <ref role="v9R2y" node="36iPLFIaVwK" resolve="reduce_node" />
        <node concept="2OqwBi" id="7XkdRUQy6a9" role="v9R3O">
          <node concept="1PxgMI" id="7XkdRUQy5Rz" role="2Oq$k0">
            <node concept="chp4Y" id="7XkdRUQy60W" role="3oSUPX">
              <ref role="cht4Q" to="ynv:7M2dKfl0rr2" resolve="Grid" />
            </node>
            <node concept="2OqwBi" id="7XkdRUQy5_N" role="1m5AlR">
              <node concept="30H73N" id="7XkdRUQy5r_" role="2Oq$k0" />
              <node concept="1mfA1w" id="7XkdRUQy5IL" role="2OqNvi" />
            </node>
          </node>
          <node concept="2qgKlT" id="7XkdRUQy6jb" role="2OqNvi">
            <ref role="37wK5l" to="tdwz:6f9o7wY9PAS" resolve="getNodeDirections" />
            <node concept="30H73N" id="7XkdRUQy6oo" role="37wK5m" />
          </node>
        </node>
      </node>
    </node>
  </node>
  <node concept="312cEu" id="36iPLFIayCh">
    <property role="TrG5h" value="MyFacility" />
    <node concept="312cEg" id="57sEyAnlzRW" role="jymVt">
      <property role="34CwA1" value="false" />
      <property role="eg7rD" value="false" />
      <property role="TrG5h" value="panel" />
      <property role="3TUv4t" value="false" />
      <node concept="3Tm6S6" id="57sEyAnlwS$" role="1B3o_S" />
      <node concept="3uibUv" id="57sEyAnlzRt" role="1tU5fm">
        <ref role="3uigEE" to="dxuu:~JPanel" resolve="JPanel" />
      </node>
      <node concept="2ShNRf" id="57sEyAnl$t9" role="33vP2m">
        <node concept="YeOm9" id="57sEyAnmCDC" role="2ShVmc">
          <node concept="1Y3b0j" id="57sEyAnmCDF" role="YeSDq">
            <property role="2bfB8j" value="true" />
            <ref role="37wK5l" to="dxuu:~JPanel.&lt;init&gt;()" resolve="JPanel" />
            <ref role="1Y3XeK" to="dxuu:~JPanel" resolve="JPanel" />
            <node concept="3Tm1VV" id="57sEyAnmCDG" role="1B3o_S" />
            <node concept="3clFb_" id="57sEyAnmFzi" role="jymVt">
              <property role="1EzhhJ" value="false" />
              <property role="TrG5h" value="paintComponent" />
              <property role="DiZV1" value="false" />
              <node concept="3Tmbuc" id="57sEyAnmFzj" role="1B3o_S" />
              <node concept="3cqZAl" id="57sEyAnmFzl" role="3clF45" />
              <node concept="37vLTG" id="57sEyAnmFzm" role="3clF46">
                <property role="TrG5h" value="graphics" />
                <node concept="3uibUv" id="57sEyAnmFzn" role="1tU5fm">
                  <ref role="3uigEE" to="z60i:~Graphics" resolve="Graphics" />
                </node>
              </node>
              <node concept="3clFbS" id="57sEyAnmFzr" role="3clF47">
                <node concept="3clFbF" id="57sEyAnmFzv" role="3cqZAp">
                  <node concept="3nyPlj" id="57sEyAnmFzu" role="3clFbG">
                    <ref role="37wK5l" to="dxuu:~JComponent.paintComponent(java.awt.Graphics)" resolve="paintComponent" />
                    <node concept="37vLTw" id="57sEyAnmFzt" role="37wK5m">
                      <ref role="3cqZAo" node="57sEyAnmFzm" resolve="graphics" />
                    </node>
                  </node>
                </node>
                <node concept="3clFbH" id="36iPLFIaKYY" role="3cqZAp">
                  <node concept="1WS0z7" id="6f9o7wY7T$N" role="lGtFl">
                    <node concept="3JmXsc" id="6f9o7wY7T$Q" role="3Jn$fo">
                      <node concept="3clFbS" id="6f9o7wY7T$R" role="2VODD2">
                        <node concept="3clFbF" id="6f9o7wY7T$X" role="3cqZAp">
                          <node concept="2OqwBi" id="6f9o7wY81Ec" role="3clFbG">
                            <node concept="2OqwBi" id="6f9o7wY7T$S" role="2Oq$k0">
                              <node concept="30H73N" id="6f9o7wY7T$W" role="2Oq$k0" />
                              <node concept="3TrEf2" id="6f9o7wY81v$" role="2OqNvi">
                                <ref role="3Tt5mk" to="ynv:3W99A5ss121" resolve="grid" />
                              </node>
                            </node>
                            <node concept="3Tsc0h" id="6f9o7wY81NM" role="2OqNvi">
                              <ref role="3TtcxE" to="ynv:7M2dKfl0ybM" resolve="nodes" />
                            </node>
                          </node>
                        </node>
                      </node>
                    </node>
                  </node>
                  <node concept="29HgVG" id="6f9o7wY7U8w" role="lGtFl" />
                </node>
              </node>
              <node concept="2AHcQZ" id="57sEyAnmFzs" role="2AJF6D">
                <ref role="2AI5Lk" to="wyt6:~Override" resolve="Override" />
              </node>
            </node>
          </node>
        </node>
      </node>
    </node>
    <node concept="2tJIrI" id="36iPLFIaRVU" role="jymVt" />
    <node concept="3clFb_" id="57sEyAnluEe" role="jymVt">
      <property role="1EzhhJ" value="false" />
      <property role="TrG5h" value="initialize" />
      <property role="od$2w" value="false" />
      <property role="DiZV1" value="false" />
      <node concept="3clFbS" id="57sEyAnluEh" role="3clF47">
        <node concept="3clFbF" id="57sEyAnkTMx" role="3cqZAp">
          <node concept="2OqwBi" id="57sEyAnkU3V" role="3clFbG">
            <node concept="Xjq3P" id="57sEyAnlD7P" role="2Oq$k0" />
            <node concept="liA8E" id="57sEyAnkVKY" role="2OqNvi">
              <ref role="37wK5l" to="z60i:~Frame.setTitle(java.lang.String)" resolve="setTitle" />
              <node concept="Xl_RD" id="57sEyAnkVNb" role="37wK5m">
                <property role="Xl_RC" value="Title" />
                <node concept="17Uvod" id="57sEyAnkVXm" role="lGtFl">
                  <property role="2qtEX9" value="value" />
                  <property role="P4ACc" value="f3061a53-9226-4cc5-a443-f952ceaf5816/1070475926800/1070475926801" />
                  <node concept="3zFVjK" id="57sEyAnkVXn" role="3zH0cK">
                    <node concept="3clFbS" id="57sEyAnkVXo" role="2VODD2">
                      <node concept="3clFbF" id="57sEyAnkWa8" role="3cqZAp">
                        <node concept="2OqwBi" id="57sEyAnkWem" role="3clFbG">
                          <node concept="30H73N" id="57sEyAnkWa7" role="2Oq$k0" />
                          <node concept="3TrcHB" id="57sEyAnkWtb" role="2OqNvi">
                            <ref role="3TsBF5" to="tpck:h0TrG11" resolve="name" />
                          </node>
                        </node>
                      </node>
                    </node>
                  </node>
                </node>
              </node>
            </node>
          </node>
        </node>
        <node concept="3clFbF" id="57sEyAnmo5g" role="3cqZAp">
          <node concept="2OqwBi" id="57sEyAnmoR8" role="3clFbG">
            <node concept="Xjq3P" id="57sEyAnmo5e" role="2Oq$k0" />
            <node concept="liA8E" id="57sEyAnmqjf" role="2OqNvi">
              <ref role="37wK5l" to="dxuu:~JFrame.setDefaultCloseOperation(int)" resolve="setDefaultCloseOperation" />
              <node concept="10M0yZ" id="41sr59Qd0jA" role="37wK5m">
                <ref role="3cqZAo" to="dxuu:~WindowConstants.EXIT_ON_CLOSE" resolve="EXIT_ON_CLOSE" />
                <ref role="1PxDUh" to="dxuu:~JFrame" resolve="JFrame" />
              </node>
            </node>
          </node>
        </node>
        <node concept="3clFbF" id="57sEyAnl$GU" role="3cqZAp">
          <node concept="2OqwBi" id="57sEyAnl$Tr" role="3clFbG">
            <node concept="Xjq3P" id="57sEyAnl$GT" role="2Oq$k0" />
            <node concept="liA8E" id="57sEyAnlAwP" role="2OqNvi">
              <ref role="37wK5l" to="z60i:~Container.add(java.awt.Component)" resolve="add" />
              <node concept="37vLTw" id="57sEyAnlA_V" role="37wK5m">
                <ref role="3cqZAo" node="57sEyAnlzRW" resolve="panel" />
              </node>
            </node>
          </node>
        </node>
        <node concept="3clFbF" id="57sEyAnlNa1" role="3cqZAp">
          <node concept="2OqwBi" id="57sEyAnlNBD" role="3clFbG">
            <node concept="37vLTw" id="57sEyAnlNa0" role="2Oq$k0">
              <ref role="3cqZAo" node="57sEyAnlzRW" resolve="panel" />
            </node>
            <node concept="liA8E" id="57sEyAnlPX8" role="2OqNvi">
              <ref role="37wK5l" to="dxuu:~JComponent.setPreferredSize(java.awt.Dimension)" resolve="setPreferredSize" />
              <node concept="2ShNRf" id="57sEyAnlRyL" role="37wK5m">
                <node concept="1pGfFk" id="57sEyAnlSbi" role="2ShVmc">
                  <ref role="37wK5l" to="z60i:~Dimension.&lt;init&gt;(int,int)" resolve="Dimension" />
                  <node concept="3cmrfG" id="57sEyAnlSeU" role="37wK5m">
                    <property role="3cmrfH" value="500" />
                  </node>
                  <node concept="3cmrfG" id="57sEyAnlTqU" role="37wK5m">
                    <property role="3cmrfH" value="500" />
                  </node>
                </node>
              </node>
            </node>
          </node>
        </node>
        <node concept="3clFbF" id="57sEyAnlEwC" role="3cqZAp">
          <node concept="2OqwBi" id="57sEyAnlFbA" role="3clFbG">
            <node concept="Xjq3P" id="57sEyAnlEwA" role="2Oq$k0" />
            <node concept="liA8E" id="57sEyAnlG$a" role="2OqNvi">
              <ref role="37wK5l" to="z60i:~Window.pack()" resolve="pack" />
            </node>
          </node>
        </node>
        <node concept="3clFbF" id="57sEyAnlH9h" role="3cqZAp">
          <node concept="2OqwBi" id="57sEyAnlHw2" role="3clFbG">
            <node concept="Xjq3P" id="57sEyAnlH9f" role="2Oq$k0" />
            <node concept="liA8E" id="57sEyAnlIS6" role="2OqNvi">
              <ref role="37wK5l" to="z60i:~Window.setVisible(boolean)" resolve="setVisible" />
              <node concept="3clFbT" id="57sEyAnlJ2c" role="37wK5m">
                <property role="3clFbU" value="true" />
              </node>
            </node>
          </node>
        </node>
      </node>
      <node concept="3Tm6S6" id="57sEyAnltJS" role="1B3o_S" />
      <node concept="3cqZAl" id="57sEyAnluDL" role="3clF45" />
    </node>
    <node concept="2tJIrI" id="57sEyAnlJAi" role="jymVt" />
    <node concept="2YIFZL" id="57sEyAnkmnC" role="jymVt">
      <property role="TrG5h" value="main" />
      <node concept="37vLTG" id="57sEyAnkmnD" role="3clF46">
        <property role="TrG5h" value="args" />
        <node concept="10Q1$e" id="57sEyAnkmnE" role="1tU5fm">
          <node concept="17QB3L" id="57sEyAnkmnF" role="10Q1$1" />
        </node>
      </node>
      <node concept="3cqZAl" id="57sEyAnkmnG" role="3clF45" />
      <node concept="3Tm1VV" id="57sEyAnkmnH" role="1B3o_S" />
      <node concept="3clFbS" id="57sEyAnkmnI" role="3clF47">
        <node concept="3cpWs8" id="57sEyAnkRe8" role="3cqZAp">
          <node concept="3cpWsn" id="57sEyAnkRe9" role="3cpWs9">
            <property role="TrG5h" value="facility" />
            <node concept="3uibUv" id="36iPLFIaQ4J" role="1tU5fm">
              <ref role="3uigEE" node="36iPLFIayCh" resolve="MyFacility" />
            </node>
            <node concept="2ShNRf" id="57sEyAnkRea" role="33vP2m">
              <node concept="HV5vD" id="57sEyAnkReb" role="2ShVmc">
                <ref role="HV5vE" node="36iPLFIayCh" resolve="MyFacility" />
              </node>
            </node>
          </node>
        </node>
        <node concept="3clFbF" id="57sEyAnlKVd" role="3cqZAp">
          <node concept="2OqwBi" id="57sEyAnlLq3" role="3clFbG">
            <node concept="37vLTw" id="57sEyAnlKVc" role="2Oq$k0">
              <ref role="3cqZAo" node="57sEyAnkRe9" resolve="facility" />
            </node>
            <node concept="liA8E" id="36iPLFIaU9c" role="2OqNvi">
              <ref role="37wK5l" node="57sEyAnluEe" resolve="initialize" />
            </node>
          </node>
        </node>
      </node>
    </node>
    <node concept="3Tm1VV" id="36iPLFIayCi" role="1B3o_S" />
    <node concept="n94m4" id="36iPLFIayCj" role="lGtFl">
      <ref role="n9lRv" to="ynv:3W99A5ss120" resolve="Facility" />
    </node>
    <node concept="3uibUv" id="36iPLFIaFix" role="1zkMxy">
      <ref role="3uigEE" to="dxuu:~JFrame" resolve="JFrame" />
    </node>
  </node>
  <node concept="13MO4I" id="36iPLFIaVwK">
    <property role="TrG5h" value="reduce_node" />
    <ref role="3gUMe" to="ynv:7M2dKfl0rrg" resolve="Node" />
    <node concept="9aQIb" id="36iPLFIaVB6" role="13RCb5">
      <node concept="3clFbS" id="36iPLFIaVB7" role="9aQI4">
        <node concept="3cpWs8" id="36iPLFIaVCV" role="3cqZAp">
          <node concept="3cpWsn" id="36iPLFIaVCW" role="3cpWs9">
            <property role="TrG5h" value="graphics" />
            <node concept="3uibUv" id="36iPLFIaVCX" role="1tU5fm">
              <ref role="3uigEE" to="z60i:~Graphics" resolve="Graphics" />
            </node>
            <node concept="10Nm6u" id="36iPLFIaVJa" role="33vP2m" />
          </node>
        </node>
        <node concept="9aQIb" id="57sEyAnlYhQ" role="3cqZAp">
          <node concept="3clFbS" id="57sEyAnlYhS" role="9aQI4">
            <node concept="3clFbF" id="57sEyAnlYpO" role="3cqZAp">
              <node concept="2OqwBi" id="57sEyAnlYqQ" role="3clFbG">
                <node concept="37vLTw" id="57sEyAnlYpN" role="2Oq$k0">
                  <ref role="3cqZAo" node="36iPLFIaVCW" resolve="graphics" />
                </node>
                <node concept="liA8E" id="57sEyAnlYxd" role="2OqNvi">
                  <ref role="37wK5l" to="z60i:~Graphics.setColor(java.awt.Color)" resolve="setColor" />
                  <node concept="10M0yZ" id="36iPLFIaX66" role="37wK5m">
                    <ref role="3cqZAo" to="z60i:~Color.black" resolve="black" />
                    <ref role="1PxDUh" to="z60i:~Color" resolve="Color" />
                  </node>
                </node>
              </node>
            </node>
            <node concept="3cpWs8" id="36iPLFIb1wH" role="3cqZAp">
              <node concept="3cpWsn" id="36iPLFIb1wK" role="3cpWs9">
                <property role="TrG5h" value="x" />
                <node concept="10Oyi0" id="36iPLFIb1wF" role="1tU5fm" />
                <node concept="3cmrfG" id="36iPLFIb1$X" role="33vP2m">
                  <property role="3cmrfH" value="0" />
                  <node concept="17Uvod" id="36iPLFIb1Cf" role="lGtFl">
                    <property role="2qtEX9" value="value" />
                    <property role="P4ACc" value="f3061a53-9226-4cc5-a443-f952ceaf5816/1068580320020/1068580320021" />
                    <node concept="3zFVjK" id="36iPLFIb1Ci" role="3zH0cK">
                      <node concept="3clFbS" id="36iPLFIb1Cj" role="2VODD2">
                        <node concept="3clFbF" id="36iPLFIb1Cp" role="3cqZAp">
                          <node concept="2OqwBi" id="36iPLFIb1Ck" role="3clFbG">
                            <node concept="3TrcHB" id="36iPLFIb1Cn" role="2OqNvi">
                              <ref role="3TsBF5" to="ynv:6f9o7wY4y8I" resolve="x" />
                            </node>
                            <node concept="30H73N" id="36iPLFIb1Co" role="2Oq$k0" />
                          </node>
                        </node>
                      </node>
                    </node>
                  </node>
                </node>
              </node>
            </node>
            <node concept="3cpWs8" id="36iPLFIb1I3" role="3cqZAp">
              <node concept="3cpWsn" id="36iPLFIb1I6" role="3cpWs9">
                <property role="TrG5h" value="y" />
                <node concept="10Oyi0" id="36iPLFIb1I1" role="1tU5fm" />
                <node concept="3cmrfG" id="36iPLFIb1Yt" role="33vP2m">
                  <property role="3cmrfH" value="0" />
                  <node concept="17Uvod" id="36iPLFIb1Zs" role="lGtFl">
                    <property role="2qtEX9" value="value" />
                    <property role="P4ACc" value="f3061a53-9226-4cc5-a443-f952ceaf5816/1068580320020/1068580320021" />
                    <node concept="3zFVjK" id="36iPLFIb1Zv" role="3zH0cK">
                      <node concept="3clFbS" id="36iPLFIb1Zw" role="2VODD2">
                        <node concept="3clFbF" id="36iPLFIb1ZA" role="3cqZAp">
                          <node concept="2OqwBi" id="36iPLFIb1Zx" role="3clFbG">
                            <node concept="3TrcHB" id="36iPLFIb1Z$" role="2OqNvi">
                              <ref role="3TsBF5" to="ynv:6f9o7wY4y8L" resolve="y" />
                            </node>
                            <node concept="30H73N" id="36iPLFIb1Z_" role="2Oq$k0" />
                          </node>
                        </node>
                      </node>
                    </node>
                  </node>
                </node>
              </node>
            </node>
            <node concept="3clFbH" id="6f9o7wY8uRt" role="3cqZAp" />
            <node concept="3clFbF" id="36iPLFIb25X" role="3cqZAp">
              <node concept="3vZbUc" id="36iPLFIb2Z7" role="3clFbG">
                <node concept="3cmrfG" id="36iPLFIb308" role="37vLTx">
                  <property role="3cmrfH" value="50" />
                </node>
                <node concept="37vLTw" id="36iPLFIb25V" role="37vLTJ">
                  <ref role="3cqZAo" node="36iPLFIb1wK" resolve="x" />
                </node>
              </node>
            </node>
            <node concept="3clFbF" id="36iPLFIb3fr" role="3cqZAp">
              <node concept="3vZbUc" id="36iPLFIb3ZY" role="3clFbG">
                <node concept="3cmrfG" id="36iPLFIb40Z" role="37vLTx">
                  <property role="3cmrfH" value="50" />
                </node>
                <node concept="37vLTw" id="36iPLFIb3fp" role="37vLTJ">
                  <ref role="3cqZAo" node="36iPLFIb1I6" resolve="y" />
                </node>
              </node>
            </node>
            <node concept="3clFbF" id="57sEyAnlXWE" role="3cqZAp">
              <node concept="2OqwBi" id="57sEyAnlXXc" role="3clFbG">
                <node concept="37vLTw" id="57sEyAnlXWD" role="2Oq$k0">
                  <ref role="3cqZAo" node="36iPLFIaVCW" resolve="graphics" />
                </node>
                <node concept="liA8E" id="57sEyAnlY88" role="2OqNvi">
                  <ref role="37wK5l" to="z60i:~Graphics.drawRect(int,int,int,int)" resolve="drawRect" />
                  <node concept="37vLTw" id="36iPLFIb4n3" role="37wK5m">
                    <ref role="3cqZAo" node="36iPLFIb1wK" resolve="x" />
                  </node>
                  <node concept="37vLTw" id="36iPLFIb4$z" role="37wK5m">
                    <ref role="3cqZAo" node="36iPLFIb1I6" resolve="y" />
                  </node>
                  <node concept="3cmrfG" id="36iPLFIaZU2" role="37wK5m">
                    <property role="3cmrfH" value="50" />
                  </node>
                  <node concept="3cmrfG" id="36iPLFIaZW7" role="37wK5m">
                    <property role="3cmrfH" value="50" />
                  </node>
                </node>
              </node>
            </node>
            <node concept="3clFbF" id="6f9o7wYbhh$" role="3cqZAp">
              <node concept="2OqwBi" id="6f9o7wYbhtn" role="3clFbG">
                <node concept="37vLTw" id="6f9o7wYbhhy" role="2Oq$k0">
                  <ref role="3cqZAo" node="36iPLFIaVCW" resolve="graphics" />
                </node>
                <node concept="liA8E" id="6f9o7wYbhz0" role="2OqNvi">
                  <ref role="37wK5l" to="z60i:~Graphics.setColor(java.awt.Color)" resolve="setColor" />
                  <node concept="10M0yZ" id="6f9o7wYbh_H" role="37wK5m">
                    <ref role="3cqZAo" to="z60i:~Color.red" resolve="red" />
                    <ref role="1PxDUh" to="z60i:~Color" resolve="Color" />
                  </node>
                </node>
              </node>
            </node>
            <node concept="3clFbH" id="7XkdRUQyR3r" role="3cqZAp" />
            <node concept="3clFbH" id="7XkdRUQzuR9" role="3cqZAp" />
            <node concept="3cpWs8" id="7XkdRUQzrF0" role="3cqZAp">
              <node concept="3cpWsn" id="7XkdRUQzrF3" role="3cpWs9">
                <property role="TrG5h" value="left" />
                <node concept="10P_77" id="7XkdRUQz$Fp" role="1tU5fm" />
                <node concept="3clFbT" id="7XkdRUQz$Om" role="33vP2m">
                  <property role="3clFbU" value="true" />
                  <node concept="17Uvod" id="7XkdRUQz$OU" role="lGtFl">
                    <property role="2qtEX9" value="value" />
                    <property role="P4ACc" value="f3061a53-9226-4cc5-a443-f952ceaf5816/1068580123137/1068580123138" />
                    <node concept="3zFVjK" id="7XkdRUQz$OV" role="3zH0cK">
                      <node concept="3clFbS" id="7XkdRUQz$OW" role="2VODD2">
                        <node concept="3clFbF" id="7XkdRUQz$Tp" role="3cqZAp">
                          <node concept="2OqwBi" id="7XkdRUQzA2S" role="3clFbG">
                            <node concept="2OqwBi" id="7XkdRUQz_5A" role="2Oq$k0">
                              <node concept="1iwH7S" id="7XkdRUQz$To" role="2Oq$k0" />
                              <node concept="3cR$yn" id="7XkdRUQz_fs" role="2OqNvi">
                                <ref role="3cRzXn" node="6f9o7wYb36s" resolve="directions" />
                              </node>
                            </node>
                            <node concept="3JPx81" id="7XkdRUQzAgu" role="2OqNvi">
                              <node concept="Xl_RD" id="7XkdRUQzAiP" role="25WWJ7">
                                <property role="Xl_RC" value="left" />
                              </node>
                            </node>
                          </node>
                        </node>
                      </node>
                    </node>
                  </node>
                </node>
              </node>
            </node>
            <node concept="3cpWs8" id="7XkdRUQzBad" role="3cqZAp">
              <node concept="3cpWsn" id="7XkdRUQzBae" role="3cpWs9">
                <property role="TrG5h" value="right" />
                <node concept="10P_77" id="7XkdRUQzBaf" role="1tU5fm" />
                <node concept="3clFbT" id="7XkdRUQzBag" role="33vP2m">
                  <property role="3clFbU" value="true" />
                  <node concept="17Uvod" id="7XkdRUQzBah" role="lGtFl">
                    <property role="2qtEX9" value="value" />
                    <property role="P4ACc" value="f3061a53-9226-4cc5-a443-f952ceaf5816/1068580123137/1068580123138" />
                    <node concept="3zFVjK" id="7XkdRUQzBai" role="3zH0cK">
                      <node concept="3clFbS" id="7XkdRUQzBaj" role="2VODD2">
                        <node concept="3clFbF" id="7XkdRUQzBak" role="3cqZAp">
                          <node concept="2OqwBi" id="7XkdRUQzBal" role="3clFbG">
                            <node concept="2OqwBi" id="7XkdRUQzBam" role="2Oq$k0">
                              <node concept="1iwH7S" id="7XkdRUQzBan" role="2Oq$k0" />
                              <node concept="3cR$yn" id="7XkdRUQzBao" role="2OqNvi">
                                <ref role="3cRzXn" node="6f9o7wYb36s" resolve="directions" />
                              </node>
                            </node>
                            <node concept="3JPx81" id="7XkdRUQzBap" role="2OqNvi">
                              <node concept="Xl_RD" id="7XkdRUQzBaq" role="25WWJ7">
                                <property role="Xl_RC" value="right" />
                              </node>
                            </node>
                          </node>
                        </node>
                      </node>
                    </node>
                  </node>
                </node>
              </node>
            </node>
            <node concept="3cpWs8" id="7XkdRUQzBrQ" role="3cqZAp">
              <node concept="3cpWsn" id="7XkdRUQzBrR" role="3cpWs9">
                <property role="TrG5h" value="top" />
                <node concept="10P_77" id="7XkdRUQzBrS" role="1tU5fm" />
                <node concept="3clFbT" id="7XkdRUQzBrT" role="33vP2m">
                  <property role="3clFbU" value="true" />
                  <node concept="17Uvod" id="7XkdRUQzBrU" role="lGtFl">
                    <property role="2qtEX9" value="value" />
                    <property role="P4ACc" value="f3061a53-9226-4cc5-a443-f952ceaf5816/1068580123137/1068580123138" />
                    <node concept="3zFVjK" id="7XkdRUQzBrV" role="3zH0cK">
                      <node concept="3clFbS" id="7XkdRUQzBrW" role="2VODD2">
                        <node concept="3clFbF" id="7XkdRUQzBrX" role="3cqZAp">
                          <node concept="2OqwBi" id="7XkdRUQzBrY" role="3clFbG">
                            <node concept="2OqwBi" id="7XkdRUQzBrZ" role="2Oq$k0">
                              <node concept="1iwH7S" id="7XkdRUQzBs0" role="2Oq$k0" />
                              <node concept="3cR$yn" id="7XkdRUQzBs1" role="2OqNvi">
                                <ref role="3cRzXn" node="6f9o7wYb36s" resolve="directions" />
                              </node>
                            </node>
                            <node concept="3JPx81" id="7XkdRUQzBs2" role="2OqNvi">
                              <node concept="Xl_RD" id="7XkdRUQzBs3" role="25WWJ7">
                                <property role="Xl_RC" value="top" />
                              </node>
                            </node>
                          </node>
                        </node>
                      </node>
                    </node>
                  </node>
                </node>
              </node>
            </node>
            <node concept="3cpWs8" id="7XkdRUQzBBW" role="3cqZAp">
              <node concept="3cpWsn" id="7XkdRUQzBBX" role="3cpWs9">
                <property role="TrG5h" value="bottom" />
                <node concept="10P_77" id="7XkdRUQzBBY" role="1tU5fm" />
                <node concept="3clFbT" id="7XkdRUQzBBZ" role="33vP2m">
                  <property role="3clFbU" value="true" />
                  <node concept="17Uvod" id="7XkdRUQzBC0" role="lGtFl">
                    <property role="2qtEX9" value="value" />
                    <property role="P4ACc" value="f3061a53-9226-4cc5-a443-f952ceaf5816/1068580123137/1068580123138" />
                    <node concept="3zFVjK" id="7XkdRUQzBC1" role="3zH0cK">
                      <node concept="3clFbS" id="7XkdRUQzBC2" role="2VODD2">
                        <node concept="3clFbF" id="7XkdRUQzBC3" role="3cqZAp">
                          <node concept="2OqwBi" id="7XkdRUQzBC4" role="3clFbG">
                            <node concept="2OqwBi" id="7XkdRUQzBC5" role="2Oq$k0">
                              <node concept="1iwH7S" id="7XkdRUQzBC6" role="2Oq$k0" />
                              <node concept="3cR$yn" id="7XkdRUQzBC7" role="2OqNvi">
                                <ref role="3cRzXn" node="6f9o7wYb36s" resolve="directions" />
                              </node>
                            </node>
                            <node concept="3JPx81" id="7XkdRUQzBC8" role="2OqNvi">
                              <node concept="Xl_RD" id="7XkdRUQzBC9" role="25WWJ7">
                                <property role="Xl_RC" value="bottom" />
                              </node>
                            </node>
                          </node>
                        </node>
                      </node>
                    </node>
                  </node>
                </node>
              </node>
            </node>
            <node concept="3clFbH" id="7XkdRUQzB_o" role="3cqZAp" />
            <node concept="3clFbJ" id="6f9o7wYbaa9" role="3cqZAp">
              <node concept="3clFbS" id="6f9o7wYbaab" role="3clFbx">
                <node concept="3clFbF" id="6f9o7wYbbRo" role="3cqZAp">
                  <node concept="2OqwBi" id="6f9o7wYbc1u" role="3clFbG">
                    <node concept="37vLTw" id="6f9o7wYbbVI" role="2Oq$k0">
                      <ref role="3cqZAo" node="36iPLFIaVCW" resolve="graphics" />
                    </node>
                    <node concept="liA8E" id="6f9o7wYbc9t" role="2OqNvi">
                      <ref role="37wK5l" to="z60i:~Graphics.fillRect(int,int,int,int)" resolve="fillRect" />
                      <node concept="37vLTw" id="6f9o7wYbcar" role="37wK5m">
                        <ref role="3cqZAo" node="36iPLFIb1wK" resolve="x" />
                      </node>
                      <node concept="37vLTw" id="6f9o7wYbcbW" role="37wK5m">
                        <ref role="3cqZAo" node="36iPLFIb1I6" resolve="y" />
                      </node>
                      <node concept="3cmrfG" id="6f9o7wYbceu" role="37wK5m">
                        <property role="3cmrfH" value="10" />
                      </node>
                      <node concept="3cmrfG" id="6f9o7wYbchN" role="37wK5m">
                        <property role="3cmrfH" value="50" />
                      </node>
                    </node>
                  </node>
                </node>
              </node>
              <node concept="37vLTw" id="7XkdRUQzAKI" role="3clFbw">
                <ref role="3cqZAo" node="7XkdRUQzrF3" resolve="left" />
              </node>
            </node>
            <node concept="3clFbJ" id="6f9o7wYbcDo" role="3cqZAp">
              <node concept="3clFbS" id="6f9o7wYbcDq" role="3clFbx">
                <node concept="3clFbF" id="6f9o7wYbehF" role="3cqZAp">
                  <node concept="2OqwBi" id="6f9o7wYbeuH" role="3clFbG">
                    <node concept="37vLTw" id="6f9o7wYbehD" role="2Oq$k0">
                      <ref role="3cqZAo" node="36iPLFIaVCW" resolve="graphics" />
                    </node>
                    <node concept="liA8E" id="6f9o7wYbex2" role="2OqNvi">
                      <ref role="37wK5l" to="z60i:~Graphics.fillRect(int,int,int,int)" resolve="fillRect" />
                      <node concept="3cpWs3" id="6f9o7wYbfin" role="37wK5m">
                        <node concept="3cmrfG" id="6f9o7wYbfiq" role="3uHU7w">
                          <property role="3cmrfH" value="40" />
                        </node>
                        <node concept="37vLTw" id="6f9o7wYbey0" role="3uHU7B">
                          <ref role="3cqZAo" node="36iPLFIb1wK" resolve="x" />
                        </node>
                      </node>
                      <node concept="37vLTw" id="6f9o7wYbeyY" role="37wK5m">
                        <ref role="3cqZAo" node="36iPLFIb1I6" resolve="y" />
                      </node>
                      <node concept="3cmrfG" id="6f9o7wYbfkn" role="37wK5m">
                        <property role="3cmrfH" value="10" />
                      </node>
                      <node concept="3cmrfG" id="6f9o7wYbfto" role="37wK5m">
                        <property role="3cmrfH" value="50" />
                      </node>
                    </node>
                  </node>
                </node>
              </node>
              <node concept="37vLTw" id="7XkdRUQzCVp" role="3clFbw">
                <ref role="3cqZAo" node="7XkdRUQzBae" resolve="right" />
              </node>
            </node>
            <node concept="3clFbJ" id="6f9o7wYbfKd" role="3cqZAp">
              <node concept="3clFbS" id="6f9o7wYbfKe" role="3clFbx">
                <node concept="3clFbF" id="6f9o7wYbfKf" role="3cqZAp">
                  <node concept="2OqwBi" id="6f9o7wYbfKg" role="3clFbG">
                    <node concept="37vLTw" id="6f9o7wYbfKh" role="2Oq$k0">
                      <ref role="3cqZAo" node="36iPLFIaVCW" resolve="graphics" />
                    </node>
                    <node concept="liA8E" id="6f9o7wYbfKi" role="2OqNvi">
                      <ref role="37wK5l" to="z60i:~Graphics.fillRect(int,int,int,int)" resolve="fillRect" />
                      <node concept="37vLTw" id="6f9o7wYbfKj" role="37wK5m">
                        <ref role="3cqZAo" node="36iPLFIb1wK" resolve="x" />
                      </node>
                      <node concept="3cpWs3" id="7XkdRUQ$5b6" role="37wK5m">
                        <node concept="3cmrfG" id="7XkdRUQ$5b9" role="3uHU7w">
                          <property role="3cmrfH" value="40" />
                        </node>
                        <node concept="37vLTw" id="6f9o7wYbfKk" role="3uHU7B">
                          <ref role="3cqZAo" node="36iPLFIb1I6" resolve="y" />
                        </node>
                      </node>
                      <node concept="3cmrfG" id="6f9o7wYbfKl" role="37wK5m">
                        <property role="3cmrfH" value="50" />
                      </node>
                      <node concept="3cmrfG" id="6f9o7wYbfKm" role="37wK5m">
                        <property role="3cmrfH" value="10" />
                      </node>
                    </node>
                  </node>
                </node>
              </node>
              <node concept="37vLTw" id="7XkdRUQzDl7" role="3clFbw">
                <ref role="3cqZAo" node="7XkdRUQzBrR" resolve="top" />
              </node>
            </node>
            <node concept="3clFbJ" id="6f9o7wYbfKr" role="3cqZAp">
              <node concept="3clFbS" id="6f9o7wYbfKs" role="3clFbx">
                <node concept="3clFbF" id="6f9o7wYbfKt" role="3cqZAp">
                  <node concept="2OqwBi" id="6f9o7wYbfKu" role="3clFbG">
                    <node concept="37vLTw" id="6f9o7wYbfKv" role="2Oq$k0">
                      <ref role="3cqZAo" node="36iPLFIaVCW" resolve="graphics" />
                    </node>
                    <node concept="liA8E" id="6f9o7wYbfKw" role="2OqNvi">
                      <ref role="37wK5l" to="z60i:~Graphics.fillRect(int,int,int,int)" resolve="fillRect" />
                      <node concept="37vLTw" id="6f9o7wYbfKz" role="37wK5m">
                        <ref role="3cqZAo" node="36iPLFIb1wK" resolve="x" />
                      </node>
                      <node concept="37vLTw" id="6f9o7wYbfK$" role="37wK5m">
                        <ref role="3cqZAo" node="36iPLFIb1I6" resolve="y" />
                      </node>
                      <node concept="3cmrfG" id="6f9o7wYbfK_" role="37wK5m">
                        <property role="3cmrfH" value="50" />
                      </node>
                      <node concept="3cmrfG" id="6f9o7wYbfKA" role="37wK5m">
                        <property role="3cmrfH" value="10" />
                      </node>
                    </node>
                  </node>
                </node>
              </node>
              <node concept="37vLTw" id="7XkdRUQzDTE" role="3clFbw">
                <ref role="3cqZAo" node="7XkdRUQzBBX" resolve="bottom" />
              </node>
            </node>
            <node concept="3clFbH" id="6f9o7wYbfwN" role="3cqZAp" />
          </node>
          <node concept="raruj" id="57sEyAnlYUp" role="lGtFl" />
        </node>
        <node concept="3clFbH" id="36iPLFIaVPV" role="3cqZAp" />
      </node>
    </node>
    <node concept="1N15co" id="6f9o7wYb36s" role="1s_3oS">
      <property role="TrG5h" value="directions" />
      <node concept="_YKpA" id="6f9o7wYb9iz" role="1N15GL">
        <node concept="17QB3L" id="6f9o7wYb9kY" role="_ZDj9" />
      </node>
    </node>
  </node>
</model>

