<?xml version="1.0" encoding="UTF-8"?>
<model ref="r:8f6069bd-ddc9-4193-815f-14332ad56810(FacilityProduct.runtime)">
  <persistence version="9" />
  <languages />
  <imports />
  <registry />
</model>

